<svg width="16" height="16" viewBox="0 0 16 16" fill="none" xmlns="http://www.w3.org/2000/svg">
<circle cx="8" cy="8" r="8" fill="#8B8B8B"/>
<rect x="10.1213" y="4.46436" width="2" height="8" rx="1" transform="rotate(45 10.1213 4.46436)" fill="white"/>
<rect x="11.5355" y="10.1211" width="2" height="8" rx="1" transform="rotate(135 11.5355 10.1211)" fill="white"/>
</svg>
