<svg width="50" height="50" viewBox="0 0 50 50" fill="none" xmlns="http://www.w3.org/2000/svg">
<circle cx="25" cy="25" r="25" fill="url(#paint0_linear)"/>
<path d="M21.7836 12.7273V38.061L14.5455 30.8228" stroke="#3AE374" stroke-width="3.65555" stroke-linecap="round" stroke-linejoin="round"/>
<path d="M29.0218 38.0609V12.7272L36.26 19.9654" stroke="#7D5FFF" stroke-width="3.65555" stroke-linecap="round" stroke-linejoin="round"/>
<defs>
<linearGradient id="paint0_linear" x1="22.2727" y1="1.07793e-06" x2="32.7273" y2="50" gradientUnits="userSpaceOnUse">
<stop stop-color="#DBFFE7"/>
<stop offset="1" stop-color="white"/>
</linearGradient>
</defs>
</svg>
