<svg width="50" height="50" viewBox="0 0 50 50" fill="none" xmlns="http://www.w3.org/2000/svg">
<circle cx="25" cy="25" r="25" fill="url(#paint0_linear)"/>
<path d="M10.8496 16.1543C10.3804 16.1543 10 16.5347 10 17.0039V34.0528C10 34.522 10.3804 34.9024 10.8496 34.9024C12.2573 34.9024 13.3984 33.7612 13.3984 32.3535V18.7031C13.3984 17.2954 12.2573 16.1543 10.8496 16.1543Z" fill="#4834D4"/>
<path d="M32.2032 31.5039V33.2031C32.2032 33.6723 32.5836 34.0527 33.0528 34.0527H38.1504C38.6196 34.0527 39 33.6723 39 33.2031V31.5039H32.2032Z" fill="#686DE0"/>
<path d="M32.2031 22.1582H28.2747C27.7134 21.535 27.0057 21.0579 26.1992 20.7711V16.0977H28.5332C28.7031 16.2085 29.2823 16.9473 30.4473 16.9473C31.8528 16.9473 32.9961 15.8039 32.9961 14.3984C32.9961 12.993 31.8528 11.8496 30.4473 11.8496C29.2809 11.8496 28.7035 12.5881 28.5332 12.6992H26.3038L26.103 12.1334C25.8624 11.4555 25.2186 11 24.5 11C23.7815 11 23.1376 11.4555 22.897 12.1334L22.6962 12.6992H20.4669C20.2969 12.5884 19.7177 11.8496 18.5527 11.8496C17.1473 11.8496 16.0039 12.993 16.0039 14.3984C16.0039 15.8039 17.1473 16.9473 18.5527 16.9473C19.7191 16.9473 20.2965 16.2087 20.4669 16.0977H22.8008V20.7711C21.9943 21.0578 21.2867 21.535 20.7253 22.1582H15.0977V28.9551H20.71H20.7253C21.6584 29.9909 22.9962 30.6543 24.5 30.6543C26.0038 30.6543 27.3416 29.9909 28.2747 28.9551H28.2901H30.5039C31.1261 28.9551 31.6467 29.3059 31.9427 29.8047H39V28.9551C39 25.2012 35.957 22.1582 32.2031 22.1582Z" fill="#4834D4"/>
<path d="M37.1689 37.6436L36.3375 36.1891C36.1865 35.9245 35.9052 35.761 35.6007 35.761H35.5999C35.2954 35.761 35.015 35.9236 34.8631 36.1874L34.0317 37.6477C33.9463 37.8569 33.9024 38.0767 33.9024 38.3008C33.9024 39.2375 34.6649 40 35.6016 40C36.5383 40 37.3008 39.2375 37.3008 38.3008C37.3008 38.0878 37.2746 37.8286 37.1689 37.6436Z" fill="#686DE0"/>
<defs>
<linearGradient id="paint0_linear" x1="22.2727" y1="1.07793e-06" x2="32.7273" y2="50" gradientUnits="userSpaceOnUse">
<stop stop-color="#DDD8FF"/>
<stop offset="1" stop-color="white"/>
</linearGradient>
</defs>
</svg>
