<svg width="27" height="27" viewBox="0 0 27 27" fill="none" xmlns="http://www.w3.org/2000/svg">
<g id="Iconly/Bold/Profile">
<g id="Profile">
<path id="Profile_2" fill-rule="evenodd" clip-rule="evenodd" d="M19.4557 8.20243C19.4557 11.5066 16.8065 14.156 13.5 14.156C10.1946 14.156 7.54427 11.5066 7.54427 8.20243C7.54427 4.89828 10.1946 2.25 13.5 2.25C16.8065 2.25 19.4557 4.89828 19.4557 8.20243ZM13.5 24.75C8.62017 24.75 4.5 23.9569 4.5 20.8968C4.5 17.8357 8.64605 17.0707 13.5 17.0707C18.381 17.0707 22.5 17.8638 22.5 20.9238C22.5 23.985 18.3539 24.75 13.5 24.75Z" fill="#1B6007"/>
</g>
</g>
</svg>
