<svg width="275" height="118" viewBox="0 0 275 118" fill="none" xmlns="http://www.w3.org/2000/svg">
<g clip-path="url(#clip0)">
<path fill-rule="evenodd" clip-rule="evenodd" d="M132.793 79.7857C132.619 79.9476 132.445 80.0873 132.273 80.2067C131.451 81.6275 130.561 83.0826 129.604 84.5722C128.094 86.924 126.483 89.0349 124.777 90.909C123.071 92.7852 121.239 94.2525 119.28 95.3171C117.321 96.3796 115.279 96.7439 113.151 96.4079C111.53 96.1286 110.186 95.4425 109.124 94.3517C108.059 93.2588 107.389 91.9027 107.11 90.2796C106.717 87.7598 107.011 85.4243 107.991 83.2709C108.97 81.1174 110.158 79.0612 111.557 77.1021C112.117 76.2621 112.354 75.6894 112.271 75.3817C112.188 75.0741 111.895 74.9061 111.391 74.8778C110.887 74.8495 110.229 74.8778 109.419 74.9608C108.608 75.0458 107.782 75.0883 106.942 75.0883C106.495 75.7035 106.088 76.3046 105.724 76.8916C105.361 77.4805 104.76 78.3892 103.918 79.6198C103.303 80.5164 102.645 81.0324 101.947 81.1721C101.247 81.3117 100.646 81.2146 100.142 80.8786C99.6379 80.5447 99.3303 80.0266 99.219 79.3263C99.1077 78.626 99.3586 77.857 99.9739 77.017C100.253 76.6244 100.45 76.331 100.561 76.1346C100.674 75.9383 100.8 75.742 100.939 75.5477C101.079 75.3514 101.261 75.0863 101.486 74.7503C101.708 74.4143 102.044 73.9104 102.492 73.2384C101.765 72.2306 101.486 70.7774 101.654 68.8729C101.765 67.5857 102.281 66.2297 103.206 64.8029C104.131 63.376 105.208 62.186 106.438 61.2348C107.669 60.2835 108.915 59.7371 110.174 59.5974C111.433 59.4598 112.455 60.0042 113.238 61.2348C113.967 62.4106 114.218 63.5157 113.995 64.5499C113.771 65.5861 113.295 66.6628 112.569 67.782C113.799 67.7274 115.086 67.6566 116.428 67.5716C117.772 67.4886 118.835 67.7254 119.618 68.286C120.122 68.622 120.723 69.0976 121.423 69.7128C122.123 70.3261 122.767 71 123.354 71.7266C123.943 72.4552 124.333 73.1696 124.53 73.8679C124.726 74.5661 124.57 75.1126 124.066 75.5032C123.564 75.9525 122.807 76.8187 121.8 78.1059C120.792 79.3931 119.869 80.7916 119.031 82.3034C118.193 83.8153 117.561 85.2401 117.143 86.586C116.724 87.9278 116.821 88.8507 117.436 89.3547C117.829 89.6906 118.373 89.6198 119.073 89.1462C119.774 88.6706 120.541 87.9865 121.381 87.0899C122.22 86.1954 123.087 85.145 123.981 83.9428C124.878 82.7386 125.716 81.591 126.501 80.5002C127.284 79.4093 127.97 78.4156 128.557 77.521C129.146 76.6244 129.551 76.0375 129.776 75.7582C129.846 75.6671 129.919 75.5781 129.992 75.4951C130.834 74.2949 131.615 73.1373 132.336 72.0221C133.259 70.5952 134.265 69.2534 135.358 67.9946C136.448 66.7357 137.721 65.574 139.177 64.5114C140.632 63.4489 142.421 62.4673 144.548 61.5727C145.499 61.1801 146.562 61.2226 147.738 61.6982C148.914 62.1738 149.936 62.8174 150.802 63.629C151.668 64.4406 152.243 65.2927 152.524 66.1892C152.803 67.0858 152.55 67.7557 151.767 68.205C149.642 69.3809 148.227 70.5548 147.529 71.7286C146.829 72.9045 146.507 74.1067 146.562 75.3392C146.618 76.5718 146.871 77.8995 147.319 79.3263C147.766 80.7531 148.102 82.3055 148.327 83.9853C150.172 83.2567 151.767 82.1253 153.111 80.5852C154.018 79.5469 154.925 78.4398 155.829 77.2599C156.171 76.4504 156.523 75.655 156.886 74.8778C157.894 72.7224 158.916 70.7916 159.95 69.0854C160.984 67.3793 161.838 66.1346 162.51 65.3493C163.573 64.1755 164.803 63.546 166.204 63.461C167.602 63.3781 168.806 63.6452 169.812 64.2585C170.82 64.8737 171.478 65.744 171.786 66.8612C172.093 67.9804 171.715 69.2129 170.652 70.5548C170.148 71.17 169.507 72.1071 168.721 73.368C167.938 74.6268 167.127 76.0112 166.289 77.523C165.449 79.0328 164.623 80.5852 163.813 82.18C163.002 83.7748 162.316 85.2158 161.757 86.503C161.199 87.7902 160.834 88.8123 160.664 89.5672C160.498 90.3221 160.61 90.6439 161 90.5306C162.344 89.8606 163.643 88.9641 164.904 87.8449C166.163 86.7256 167.365 85.5093 168.515 84.1938C169.66 82.8782 170.768 81.5081 171.83 80.0812C172.893 78.6544 173.957 77.27 175.02 75.9262C175.803 74.135 176.629 72.4269 177.495 70.8057C178.361 69.1826 179.357 67.7274 180.476 66.4402C181.259 65.153 182.338 64.301 183.708 63.88C185.078 63.459 186.351 63.4044 187.527 63.712C188.703 64.0196 189.584 64.6916 190.171 65.7278C190.759 66.762 190.66 68.12 189.877 69.7978C189.766 70.0225 189.513 70.4414 189.122 71.0567C188.73 71.672 188.256 72.4127 187.695 73.2809C187.137 74.1472 186.534 75.0984 185.89 76.1346C185.246 77.1709 184.617 78.2476 184.002 79.3668C183.332 80.654 182.686 81.9533 182.071 83.2688C181.456 84.5844 180.909 85.8027 180.434 86.922C179.958 88.0391 179.553 89.0187 179.217 89.8586C178.881 90.6985 178.659 91.2571 178.545 91.5364L178.375 91.9574C180.448 90.6702 182.251 89.3 183.791 87.8449C185.329 86.3897 186.702 84.9628 187.904 83.5643C188.752 82.5787 189.529 81.6133 190.239 80.6681C190.695 79.7776 191.203 78.8972 191.765 78.0249C193.024 76.0658 194.492 74.1917 196.171 72.4006C197.851 70.6094 199.654 69.0429 201.587 67.6991C203.518 66.3552 205.506 65.321 207.546 64.5924C209.588 63.8638 211.616 63.5299 213.631 63.5845C215.03 63.9205 216.261 64.6207 217.325 65.6833L217.576 65.3473C218.641 64.1735 219.871 63.544 221.27 63.459C222.668 63.376 223.872 63.6432 224.88 64.2564C225.888 64.8717 226.544 65.742 226.852 66.8591C227.159 67.9784 226.781 69.2109 225.718 70.5527C225.214 71.168 224.571 72.0909 223.787 73.3214C223.004 74.552 222.193 75.9241 221.353 77.434C220.515 78.9458 219.703 80.484 218.92 82.0505C218.137 83.617 217.465 85.0438 216.906 86.331C215.844 88.6827 215.479 90.0246 215.815 90.3606C216.151 90.6985 217.382 89.9679 219.509 88.1788C221.525 86.501 223.425 84.5014 225.216 82.178C226.323 80.741 227.412 79.3425 228.477 77.9804C229.729 76.0375 231.189 74.1775 232.854 72.4006C234.534 70.6094 236.337 69.0429 238.27 67.6991C240.201 66.3552 242.187 65.321 244.229 64.5924C246.273 63.8638 248.299 63.5299 250.314 63.5845C251.656 63.9205 252.747 64.4791 253.587 65.2623C253.587 65.149 253.642 65.0397 253.755 64.9284L255.769 61.1498C256.831 59.136 257.896 57.2315 258.959 55.4404C260.021 53.6492 261.015 52.0402 261.938 50.6154C262.861 49.1886 263.672 47.9985 264.37 47.0473C265.071 46.0961 265.589 45.4525 265.925 45.1185C267.101 43.8313 268.345 43.0623 269.659 42.8093C270.974 42.5583 272.108 42.7121 273.059 43.2707C274.01 43.8313 274.625 44.7279 274.907 45.9564C275.186 47.1869 274.85 48.6705 273.899 50.4049C271.717 54.0985 269.462 57.7638 267.141 61.4007C264.818 65.0397 262.593 68.9255 260.468 73.0684C259.124 75.7541 257.866 78.3427 256.69 80.8321C255.516 83.3215 254.565 85.4061 253.836 87.0859C253.277 88.3731 252.956 89.2535 252.871 89.7291C252.788 90.2047 252.871 90.4294 253.124 90.401C253.375 90.3727 253.753 90.1622 254.255 89.7716C254.759 89.379 255.318 88.96 255.935 88.5127C258.062 86.8896 259.964 84.9588 261.644 82.7204C263.322 80.4819 265.002 78.3002 266.68 76.1731C267.408 75.2198 268.123 74.6046 268.821 74.3253C269.521 74.046 270.094 74.0318 270.539 74.2828C270.988 74.5337 271.239 75.0235 271.296 75.7521C271.351 76.4787 271.128 77.3733 270.624 78.4378C269.28 80.3969 267.797 82.5099 266.176 84.7766C264.553 87.0414 262.818 89.0997 260.972 90.9455C259.124 92.7912 257.194 94.2768 255.18 95.394C253.166 96.5132 251.067 96.9058 248.884 96.5698C247.262 96.2905 246.127 95.6328 245.483 94.5965C244.842 93.5623 244.435 92.4006 244.267 91.1134C242.419 93.0726 240.434 94.5702 238.307 95.6044C236.18 96.6407 233.69 96.9625 230.837 96.5698C228.485 96.1772 226.821 95.394 225.842 94.2201C225.056 93.279 224.587 92.1396 224.431 90.8038L224.332 90.905C222.458 92.7811 220.499 94.2788 218.456 95.396C216.414 96.5152 214.301 96.9078 212.12 96.5719C210.608 96.2926 209.476 95.6753 208.719 94.7261C207.965 93.7748 207.503 92.6556 207.335 91.3684C205.544 93.2709 203.585 94.7119 201.46 95.6894C199.333 96.671 196.898 96.9645 194.158 96.5719C191.808 96.1792 190.142 95.396 189.163 94.2221C188.408 93.3154 187.944 92.2266 187.77 90.9535C185.839 92.8176 183.842 94.4245 181.775 95.7765C179.677 97.1466 177.424 98.4197 175.018 99.5956C174.01 101.723 172.933 103.765 171.786 105.724C170.638 107.683 169.337 109.446 167.881 111.012C166.426 112.581 164.789 113.894 162.969 114.957C161.152 116.019 159.124 116.72 156.884 117.056C154.03 117.503 151.583 117.238 149.539 116.258C147.497 115.279 146.084 114.006 145.301 112.439C144.518 110.873 144.532 109.179 145.343 107.361C146.155 105.542 147.989 103.989 150.842 102.702C153.194 101.583 155.754 100.589 158.523 99.7231C161.292 98.8568 164.048 97.9461 166.791 96.9949C167.295 96.0436 167.754 95.0519 168.175 94.0157C168.596 92.9815 169.029 91.9028 169.476 90.7835C169.476 90.6722 169.531 90.5589 169.644 90.4476C167.742 92.4067 165.74 93.9995 163.641 95.232C161.545 96.4646 159.347 96.9119 157.054 96.5739C156.046 96.4059 155.192 96.0558 154.493 95.5255C153.795 94.9932 153.263 94.3517 152.901 93.5947C152.536 92.8398 152.312 92.0141 152.229 91.1175C152.146 90.2229 152.188 89.3263 152.354 88.4318L152.459 87.8206C151.148 88.6827 149.63 89.4174 147.906 90.0266C147.288 91.2571 146.226 92.3075 144.716 93.1758C143.206 94.042 141.526 94.6998 139.681 95.147C137.833 95.5943 135.987 95.8048 134.139 95.7765C132.293 95.7481 130.727 95.4547 129.44 94.8941C128.545 94.5014 127.93 93.9145 127.592 93.1313C127.258 92.348 127.242 91.5223 127.551 90.654C127.859 89.7878 128.474 88.96 129.397 88.1768C130.32 87.3935 131.621 86.8066 133.299 86.416C134.137 86.1913 134.977 86.0375 135.817 85.9525C136.657 85.8695 137.468 85.7704 138.252 85.6591C138.084 84.8758 137.875 83.9813 137.622 82.9734C137.371 81.9655 137.161 80.9454 136.993 79.9092C136.823 78.873 136.726 77.8671 136.699 76.8875C136.671 75.908 136.825 74.9992 137.161 74.1613C137.329 73.712 137.357 73.4611 137.244 73.4044C137.132 73.3498 136.936 73.5441 136.657 73.9934C136.264 74.5519 135.916 75.0559 135.609 75.5032C135.301 75.9525 135.007 76.3836 134.726 76.8045C134.447 77.2255 134.153 77.6728 133.846 78.1484C133.538 78.624 133.188 79.1684 132.797 79.7837L132.793 79.7857ZM65.4747 51.9896C66.3146 52.3802 66.861 52.9834 67.112 53.8213C67.365 54.647 67.3508 55.4728 67.0715 56.2702C66.7922 57.0676 66.2458 57.7375 65.4342 58.2556C64.6226 58.7859 63.5742 58.9417 62.2871 58.717C60.6072 58.717 59.0974 58.7474 57.7535 58.8C56.4117 58.8567 55.1103 58.9538 53.8515 59.0935C52.5906 59.2331 51.2913 59.3748 49.9474 59.5145C48.6056 59.6541 47.0937 59.8079 45.4139 59.9759C42.6735 60.2572 40.2509 60.1722 38.1542 59.7249C36.0574 59.2777 34.2784 58.6482 32.8253 57.8508C31.3701 57.0392 30.2509 56.1285 29.4677 55.1084C28.6844 54.0884 28.2655 53.0947 28.2088 52.1576C28.0975 50.6599 28.4901 49.1501 29.3847 47.6383C30.2813 46.1285 31.526 44.6713 33.1208 43.2727C34.7156 41.8763 36.5493 40.5587 38.6197 39.3282C40.6901 38.0956 42.8172 36.9784 44.999 35.9726C47.1828 34.9647 49.3342 34.0823 51.4633 33.3273C53.5884 32.5724 55.4908 31.9997 57.1707 31.607C59.745 30.9918 62.6412 30.5445 65.8592 30.2632C69.0772 29.9839 72.3519 29.9839 75.6811 30.2632C79.0104 30.5425 82.2709 31.1314 85.4586 32.028C88.6482 32.9226 91.5019 34.2098 94.0216 35.8896C96.5393 37.5694 98.5673 39.652 100.107 42.1434C101.646 44.6328 102.443 47.6403 102.5 51.1659C102.611 56.3147 101.884 61.0728 100.316 65.4364C98.7494 69.7999 96.679 73.9853 94.1046 77.9845C91.5322 81.9857 88.6624 85.9181 85.5011 89.7797C82.3397 93.6413 79.2209 97.6425 76.1426 101.783C75.582 102.287 74.6449 102.54 73.3314 102.54C72.0159 102.54 70.7145 102.372 69.4273 102.036C68.1401 101.7 67.0351 101.225 66.1122 100.61C65.1893 99.9943 64.8675 99.3223 65.1468 98.5958C65.9301 96.1894 67.2881 93.7425 69.2168 91.2511C71.1476 88.7617 73.2606 86.2015 75.5536 83.5704C77.8487 80.9414 80.1701 78.2132 82.5219 75.3858C84.8737 72.5604 86.8874 69.6218 88.5672 66.5718C90.2451 63.5218 91.3926 60.3463 92.0079 57.0453C92.6251 53.7302 92.3722 50.2329 91.253 46.5535C90.6377 44.5377 89.2533 42.874 87.0959 41.5585C84.9425 40.243 82.3681 39.2938 79.3747 38.7048C76.3814 38.1179 73.1493 37.8791 69.6803 37.9924C66.2093 38.1017 62.8517 38.551 59.6074 39.3343C57.033 39.9495 54.5578 40.7044 52.1797 41.601C49.7997 42.4956 47.7029 43.4347 45.8834 44.4122C44.064 45.3918 42.6229 46.3308 41.5604 47.2254C40.4979 48.122 40.0081 48.9052 40.0931 49.5751C40.1761 50.2471 40.933 50.7348 42.3578 51.0425C43.7847 51.3501 46.0939 51.3643 49.2836 51.085C50.7387 50.9716 52.2344 50.8745 53.7746 50.7915C55.3148 50.7085 56.8104 50.6943 58.2656 50.749C59.7228 50.8057 61.0768 50.9291 62.3356 51.1275C63.5965 51.3238 64.6449 51.6172 65.4828 51.9957L65.4747 51.9896ZM198.436 91.2025C199.276 91.3138 200.213 91.0183 201.247 90.3201C202.284 89.6198 203.36 88.6261 204.479 87.3389C205.599 86.0517 206.718 84.5419 207.837 82.8074C208.956 81.0709 209.99 79.2251 210.944 77.268C211.223 76.6507 211.488 76.0355 211.741 75.4202C211.992 74.8049 212.259 74.1897 212.539 73.5744C212.818 72.9025 213.071 72.0909 213.293 71.1397C213.518 70.1884 213.407 69.5732 212.96 69.2939C211.84 68.9579 210.539 69.3485 209.055 70.4698C207.572 71.589 206.105 73.0725 204.647 74.9183C203.192 76.7661 201.85 78.7778 200.62 80.9616C199.389 83.1454 198.438 85.1025 197.766 86.837C197.262 88.2355 197.165 89.3 197.473 90.0266C197.78 90.7532 198.102 91.1458 198.44 91.2025H198.436ZM248.884 74.4973V74.4143C248.94 74.2463 249.064 73.9245 249.26 73.4489C249.456 72.9733 249.624 72.441 249.764 71.8541C249.904 71.2672 249.989 70.7349 250.017 70.2593C250.045 69.7837 249.92 69.4619 249.638 69.2939C248.519 68.9579 247.218 69.3485 245.736 70.4698C244.253 71.589 242.784 73.0725 241.328 74.9183C239.873 76.7661 238.531 78.7778 237.301 80.9616C236.07 83.1454 235.119 85.1025 234.445 86.837C233.941 88.2355 233.844 89.3 234.152 90.0266C234.459 90.7532 234.781 91.1458 235.117 91.2025C235.955 91.3138 236.894 91.0183 237.928 90.3201C238.964 89.6198 240.027 88.6261 241.118 87.3389C242.209 86.0517 243.314 84.5419 244.433 82.8074C245.552 81.0709 246.586 79.2251 247.54 77.268L248.882 74.4973H248.884ZM153.194 110.927C154.815 110.48 156.327 109.751 157.726 108.746C159.124 107.738 160.44 106.507 161.67 105.052C160.272 105.556 158.873 106.074 157.475 106.606C156.076 107.137 154.647 107.711 153.194 108.327C152.465 108.608 151.85 108.956 151.346 109.377C150.842 109.798 150.549 110.174 150.466 110.51C150.383 110.846 150.535 111.085 150.927 111.225C151.32 111.366 152.075 111.267 153.196 110.931L153.194 110.927Z" fill="white"/>
<path fill-rule="evenodd" clip-rule="evenodd" d="M130.718 27.967L152.722 21.2497L153.372 17.7301L130.718 27.967V27.967ZM102.524 21.9702L129.482 29.3432L155.887 21.6949L152.368 54.0286L142.364 56.9349L140.834 42.1989C136.391 43.1198 135.485 47.9083 136.231 54.5103L130.544 50.4159C127.057 47.7525 124.41 43.8869 121.605 40.0455C119.433 37.6857 116.49 39.495 117.735 41.8873C120.075 45.8177 122.698 49.6752 125.778 53.4194L120.52 49.7683C118.387 47.5886 116.926 45.1862 115.537 42.7555C114.408 41.6545 112.206 42.6928 113.185 44.5305L116.82 51.5675L120.008 54.1237L115.163 51.7902L112.052 47.0785C110.656 45.168 108.194 47.4671 109.795 49.7946L115.359 56.9774L106.231 54.0245L102.526 21.9681L102.524 21.9702ZM107.51 15.5504L127.707 27.8718L107.51 21.7111V15.5504ZM149.988 14.2531L130.253 27.2707L149.338 18.2381L149.988 14.2551V14.2531Z" fill="white"/>
<path fill-rule="evenodd" clip-rule="evenodd" d="M19.8857 79.6021C19.3757 80.78 18.9062 81.9255 18.4731 83.0447C18.042 84.1639 17.7262 84.9978 17.5319 85.5463C17.2952 86.2911 16.8054 86.7525 16.0606 86.9286C15.3158 87.1047 14.5609 87.0945 13.7959 86.8982C13.0308 86.7019 12.3731 86.3396 11.8246 85.8094C11.2741 85.2811 11.0778 84.6821 11.2356 84.0162C11.8246 81.6644 12.6301 79.4463 13.6481 77.3697C14.6681 75.2892 15.6882 73.1135 16.7082 70.8387C17.0604 70.0939 17.1009 69.5838 16.8256 69.3086C16.5504 69.0334 16.0403 69.1507 15.2956 69.6628C14.9434 69.8976 14.5406 70.193 14.0893 70.5452C13.638 70.8973 13.1988 71.2799 12.7677 71.6907C12.3366 72.1036 11.9339 72.5347 11.5615 72.986C11.1891 73.4353 10.8855 73.8988 10.6487 74.3683C10.1407 75.4288 9.63069 76.5157 9.12067 77.6349C8.61065 78.7521 8.1411 79.8106 7.70799 80.8124C7.27488 81.8122 6.90248 82.725 6.58878 83.5487C6.2771 84.3744 6.04031 85.0403 5.88447 85.5503C5.64767 86.2951 5.17813 86.7565 4.47179 86.9326C3.76546 87.1087 3.05912 87.0905 2.35278 86.8739C1.64644 86.6574 1.0494 86.285 0.55759 85.7567C0.0657851 85.2265 -0.100174 84.6294 0.0576895 83.9636C0.292461 82.9031 0.626402 81.6968 1.05749 80.3449C1.48858 78.9909 1.9986 77.5499 2.58755 76.0198C3.17448 74.4918 3.84236 72.9111 4.58715 71.2839C5.33397 69.6547 6.11721 68.0781 6.94094 66.548C7.45096 65.6454 8.16741 64.939 9.08828 64.429C10.0112 63.921 11.0393 63.8805 12.1788 64.3116C12.962 64.6253 13.5024 65.0078 13.7959 65.4571C14.0893 65.9085 14.1966 66.4084 14.1197 66.9589C14.9818 66.293 15.8946 65.7121 16.856 65.2244C17.8173 64.7326 18.7584 64.3906 19.6793 64.1942C20.6022 63.9979 21.4542 63.9696 22.2395 64.1072C23.0228 64.2448 23.6906 64.6071 24.2391 65.1961C24.8685 65.8619 25.1418 66.7261 25.0628 67.7846C25.9655 66.9993 26.9451 66.3051 28.0036 65.696C29.0641 65.0888 30.1023 64.6375 31.1224 64.344C32.1424 64.0485 33.1038 63.9615 34.0064 64.0789C34.907 64.1963 35.6539 64.5686 36.2408 65.1961C36.9087 65.9408 37.1333 66.9427 36.9188 68.1975C36.7022 69.4523 36.2894 70.7577 35.6842 72.1097C35.075 73.4636 34.4193 74.767 33.7129 76.0218C33.0046 77.2787 32.4966 78.2582 32.1829 78.9646C31.4381 80.6889 31.1527 81.7494 31.3288 82.1421C31.5049 82.5347 31.9866 82.3971 32.7718 81.7292C33.2434 81.3366 33.7818 80.7982 34.3909 80.1121C34.9981 79.426 35.6154 78.6914 36.2428 77.9061C36.8722 77.1208 37.4693 76.3376 38.036 75.5523C38.378 75.0807 38.6978 74.6355 38.9892 74.2226C39.2766 73.5223 39.5782 72.8362 39.8899 72.1704C40.5962 70.6606 41.3106 69.3066 42.0372 68.1105C42.7638 66.9143 43.3608 66.042 43.8324 65.4936C44.5772 64.6698 45.4394 64.2286 46.4209 64.1699C47.4005 64.1112 48.2445 64.2974 48.9508 64.7285C49.6571 65.1596 50.1186 65.7688 50.3331 66.5541C50.5497 67.3394 50.2846 68.2015 49.5398 69.1447C49.1856 69.5758 48.7363 70.2335 48.1858 71.1159C47.6373 71.9983 47.0686 72.9678 46.4796 74.0283C45.8907 75.0868 45.3119 76.1757 44.7452 77.2928C44.1765 78.4121 43.6948 79.422 43.3042 80.3226C42.9115 81.2253 42.6565 81.9397 42.5391 82.47C42.4217 83.0002 42.4987 83.2249 42.7759 83.1459C43.717 82.6764 44.6278 82.049 45.5102 81.2637C46.3926 80.4784 47.2366 79.6264 48.0401 78.7035C48.8435 77.7826 49.6187 76.8213 50.3635 75.8194C51.1103 74.8196 51.8531 73.8482 52.5999 72.9091C53.1484 71.6523 53.7272 70.4582 54.3344 69.3187C54.9435 68.1813 55.6377 67.1613 56.423 66.2586C56.9735 65.358 57.7284 64.7569 58.6898 64.4634C59.6511 64.1699 60.5416 64.1315 61.3674 64.346C62.1891 64.5606 62.8084 65.0321 63.2192 65.7587C63.6301 66.4853 63.5633 67.4345 63.0128 68.6124C62.9359 68.7682 62.7578 69.0637 62.4825 69.4948C62.2073 69.9259 61.8754 70.446 61.4827 71.0552C61.0901 71.6624 60.6691 72.3303 60.2178 73.0548C59.7665 73.7814 59.3253 74.5343 58.8942 75.3196C58.4246 76.2222 57.9733 77.133 57.5422 78.0558C57.1111 78.9767 56.7286 79.8308 56.3947 80.6161C56.0628 81.4013 55.7774 82.0854 55.5426 82.6744C55.3079 83.2633 55.15 83.6539 55.0711 83.8502L54.9537 84.1457C56.4048 83.2451 57.6718 82.2838 58.7485 81.2637C59.8292 80.2437 60.7906 79.2439 61.6325 78.2623C62.4744 77.2827 63.2213 76.3295 63.8689 75.4086C64.5165 74.4857 65.1136 73.6721 65.6621 72.9658C66.1316 72.3788 66.6335 71.9963 67.1618 71.8202C67.692 71.6442 68.1332 71.6442 68.4874 71.8202C68.8396 71.9963 69.046 72.3303 69.1047 72.82C69.1634 73.3119 68.9772 73.9089 68.5461 74.6152C67.4492 76.459 66.3097 78.0963 65.1359 79.5272C63.958 80.9581 62.7821 82.2433 61.6042 83.3807C60.232 84.7144 58.8092 85.862 57.3398 86.8233C55.8685 87.7847 54.2898 88.6752 52.6039 89.5009C51.8976 90.9925 51.1427 92.4234 50.3372 93.7956C49.5337 95.1678 48.6209 96.4044 47.6029 97.5014C46.5829 98.6003 45.4353 99.5212 44.1603 100.268C42.8852 101.013 41.4624 101.503 39.8939 101.737C37.8923 102.051 36.178 101.865 34.7431 101.179C33.3122 100.493 32.3225 99.5981 31.772 98.5032C31.2236 97.4042 31.2317 96.2182 31.8024 94.9412C32.3711 93.6661 33.6563 92.5773 35.6559 91.6766C37.3033 90.8914 39.0985 90.1951 41.0394 89.5859C42.9803 88.9788 44.9132 88.3433 46.8358 87.6754C47.19 87.0075 47.5118 86.3113 47.8053 85.5867C48.1008 84.8602 48.4044 84.1053 48.7181 83.322C48.7181 83.2451 48.7585 83.1662 48.8375 83.0872C47.5037 84.4594 46.1012 85.5766 44.6298 86.4408C43.1584 87.305 41.6183 87.6167 40.0113 87.3819C39.305 87.2645 38.7079 87.0197 38.2161 86.6473C37.7263 86.2749 37.3539 85.8215 37.0969 85.2933C36.8419 84.763 36.686 84.1842 36.6273 83.5568C36.6152 83.4212 36.6071 83.2856 36.601 83.15L36.4796 83.2937C35.7348 84.1761 34.988 84.9108 34.2432 85.4977C33.5773 86.0482 32.6828 86.4894 31.5656 86.8233C30.4464 87.1573 29.3292 87.2929 28.21 87.2362C27.0928 87.1775 26.1031 86.882 25.2389 86.3518C24.3747 85.8215 23.8647 84.9695 23.7089 83.7936C23.6704 82.8909 23.8283 81.881 24.1804 80.7638C24.5326 79.6446 24.9738 78.5072 25.5041 77.3515C26.0343 76.1939 26.5929 75.0564 27.1798 73.9393C27.7688 72.82 28.2788 71.7919 28.7099 70.8508C29.0641 70.106 29.1025 69.596 28.8293 69.3207C28.5541 69.0455 28.044 69.1629 27.2992 69.6749C26.6718 70.106 25.9655 70.6545 25.1802 71.3224C24.397 71.9882 23.7291 72.7148 23.1806 73.4981C22.5148 74.7549 21.857 75.9206 21.2094 77.0014C20.5637 78.0801 20.1225 78.9524 19.8878 79.6183L19.8857 79.6021ZM37.3013 97.4285C38.4387 97.1148 39.4972 96.6048 40.4788 95.8985C41.4604 95.1921 42.3813 94.3299 43.2434 93.3099C42.2639 93.6641 41.2823 94.0243 40.3007 94.3988C39.3211 94.7732 38.3193 95.1739 37.3013 95.605C36.7913 95.8013 36.3602 96.0462 36.006 96.3397C35.6539 96.6331 35.4474 96.8983 35.3887 97.133C35.33 97.3678 35.4393 97.5338 35.7126 97.6329C35.9878 97.7301 36.516 97.6633 37.3013 97.4265V97.4285Z" fill="white"/>
<path fill-rule="evenodd" clip-rule="evenodd" d="M108.725 9.45288C108.82 9.80099 109.239 10.2908 109.427 10.479C110.115 11.1631 110.947 11.4241 111.941 11.4727L113.218 11.493C113.608 11.5031 113.736 11.408 113.647 11.837C113.633 11.8998 113.647 11.8613 113.628 11.8998C113.471 11.9564 112.55 11.918 112.307 11.916C111.904 11.9139 111.321 11.8633 110.943 11.9099C111.042 12.177 111.627 12.8125 111.809 12.9765C112.596 13.701 113.321 14.1341 114.47 14.1868C115.11 14.2151 115.754 14.2232 116.397 14.2313C116.349 14.3608 116.421 14.462 116.391 14.6097C116.175 14.713 114.007 14.634 113.728 14.6765C114.055 15.0671 114.08 15.1886 114.543 15.5974C115.203 16.1823 115.998 16.6255 116.925 16.7672C117.47 16.8502 118.101 16.7794 118.67 16.7976L118.664 17.0587L116.235 17.1578C116.308 17.5322 117.055 18.3175 117.413 18.5624C117.573 18.6697 117.767 18.8113 117.956 18.9085C118.34 19.1109 118.745 19.2809 119.249 19.3537C119.492 19.3902 120.793 19.4003 120.886 19.459C120.929 19.5055 120.892 19.4509 120.927 19.5339C120.941 19.5683 120.947 19.5905 120.965 19.631C121.042 19.801 121.048 19.7039 121.068 19.7828C120.923 19.7464 119.109 19.7525 118.812 19.7545C118.852 19.8779 118.901 19.9063 118.988 20.0156C119.733 20.9648 120.67 21.5618 121.876 21.8512C122.218 21.9342 123.031 22.0819 123.4 22.0536C123.353 21.9767 123.28 21.9423 123.22 21.8715C123.127 21.7642 123.167 21.7642 122.981 21.746C122.032 21.659 120.947 21.4201 120.21 20.8433C120.024 20.6976 119.56 20.2928 119.475 20.0844L121.831 20.1026C121.787 19.9832 121.147 19.1655 121.058 19.0461L119.055 18.9227C118.917 18.8984 118.664 18.785 118.536 18.7324C118.225 18.6069 117.866 18.3924 117.638 18.2163C117.484 18.0989 117.01 17.6476 117.004 17.429L120.123 17.3865C120.107 17.3137 119.923 17.0546 119.866 16.9231C119.818 16.8077 119.712 16.4596 119.666 16.3867C118.737 16.3442 117.587 16.7065 116.438 16.3645C116.221 16.2997 116 16.2167 115.814 16.1196C115.337 15.8706 114.924 15.5751 114.559 15.1866C114.517 15.142 114.493 15.1096 114.45 15.0651C114.393 15.0064 114.369 15.0004 114.367 14.9457L119.142 14.9275C119.095 14.7757 119.03 14.713 118.945 14.3993C118.895 14.2151 118.87 13.9864 118.81 13.8063C118.528 13.7698 118.057 13.7982 117.751 13.7941L114.537 13.7759C113.815 13.7739 112.744 13.3286 112.252 12.8652C112.117 12.7377 111.819 12.4705 111.732 12.3106L118.516 12.2297C118.433 11.7237 118.464 11.7581 118.439 11.3533L118.413 11.2339C118.277 11.1975 113.339 11.1874 113.033 11.1833C112.109 11.1712 111.445 11.1671 110.668 10.8494C110.018 10.5842 109.506 10.1167 109.176 9.65931L118.51 9.65324L118.553 9.40026L108.725 9.44681V9.45288Z" fill="#FEFEFE"/>
<path fill-rule="evenodd" clip-rule="evenodd" d="M139.898 9.65527L149.234 9.65729C148.9 10.1228 148.394 10.5863 147.742 10.8534C146.963 11.1712 146.301 11.1752 145.376 11.1874C145.087 11.1914 140.13 11.2035 139.997 11.2379L139.983 11.2744C139.979 11.2885 139.936 11.9726 139.894 12.2317L146.678 12.3106C146.572 12.511 146.188 12.8469 145.994 13.0028C145.761 13.187 145.437 13.363 145.121 13.4946C144.2 13.8811 143.17 13.78 142.118 13.786L139.602 13.8083C139.515 14.0653 139.509 14.3325 139.377 14.6786C139.343 14.7717 139.296 14.8486 139.27 14.9315L144.044 14.9498C144.042 15.0044 144.049 14.974 144.006 15.0246C143.227 15.9111 142.164 16.5163 140.909 16.5163C140.547 16.5163 140.159 16.492 139.815 16.4616C139.507 16.4333 139.048 16.3766 138.746 16.3908C138.697 16.4636 138.594 16.8097 138.546 16.9271C138.489 17.0587 138.305 17.3197 138.289 17.3926L141.405 17.4371C141.399 17.6456 140.934 18.0969 140.786 18.2102C140.559 18.3863 140.197 18.6029 139.889 18.7284C139.288 18.9773 139.386 18.9348 138.722 18.9652C138.262 18.9874 137.821 19.04 137.354 19.0461C137.226 19.2141 137.096 19.3821 136.963 19.5582C136.894 19.6472 136.846 19.7302 136.771 19.8213C136.702 19.9042 136.619 19.9933 136.58 20.1006L138.936 20.0844C138.849 20.2949 138.4 20.6834 138.214 20.8332C137.953 21.0396 137.611 21.2177 137.252 21.3574C136.692 21.574 136.07 21.6893 135.451 21.746C135.263 21.7622 135.301 21.746 135.204 21.8593C135.139 21.9342 135.06 21.9727 135.012 22.0536C135.706 22.1062 137.137 21.75 137.777 21.3999C138.483 21.0133 138.928 20.6247 139.414 20.0277C139.505 19.9164 139.56 19.8719 139.6 19.7545L137.343 19.7747C137.356 19.7342 137.396 19.7383 137.441 19.6472C137.457 19.6128 137.469 19.5764 137.481 19.548L137.528 19.457C137.623 19.3983 138.902 19.3881 139.147 19.3537C140.041 19.2303 140.829 18.7648 141.454 18.1677C141.606 18.024 142.124 17.425 142.178 17.1558L139.75 17.0607L139.744 16.7935C140.393 16.7955 141.201 16.838 141.772 16.7085C142.838 16.4677 143.619 15.8828 144.324 15.136C144.449 15.0044 144.559 14.8223 144.686 14.6705L143.128 14.6502C142.873 14.6421 142.191 14.6846 142.023 14.6057C141.992 14.4499 142.067 14.3568 142.019 14.2252C142.656 14.2171 143.288 14.205 143.923 14.1827C144.55 14.1584 145.026 14.039 145.488 13.7901C145.931 13.5513 146.307 13.2558 146.621 12.9623C146.817 12.7781 147.368 12.177 147.481 11.9018C146.627 11.8694 145.734 11.9301 144.789 11.9058L144.775 11.8552C144.737 11.6792 144.793 11.9868 144.767 11.8127C144.704 11.4161 144.777 11.499 145.176 11.4909C146.139 11.4687 147.052 11.5476 147.918 11.1833C148.319 11.0153 148.736 10.7259 148.979 10.4871C149.169 10.2989 149.598 9.80301 149.693 9.44478L139.867 9.40026L139.906 9.65324L139.898 9.65527Z" fill="#FEFEFE"/>
<path fill-rule="evenodd" clip-rule="evenodd" d="M131.155 7.38521L131.092 7.58963L131.188 7.74344C131.281 7.70904 131.22 7.74547 131.297 7.67058C131.457 7.51474 132.084 7.03103 132.272 6.89341C132.906 6.42792 133.499 6.03326 134.341 5.8167C135.693 5.47062 137.122 6.06766 137.988 6.98448C139.437 8.51657 139.305 11.1233 139.002 13.1007C138.953 13.4144 138.82 13.7807 138.719 14.0762C138.611 14.3899 138.494 14.6975 138.374 14.9849C137.781 16.4178 137.551 16.7153 136.869 17.9013C136.792 18.0369 136.707 18.1503 136.626 18.2737C136.403 18.6158 135.163 20.3361 134.733 20.8016L132.639 23.1048C132.521 23.208 132.426 23.3092 132.313 23.4185L130.997 24.6348C130.88 24.7218 130.775 24.8149 130.659 24.9121C130.544 25.0072 130.429 25.1044 130.311 25.2015C130.032 25.4302 129.666 25.669 129.403 25.8653C129.318 25.9281 129.22 26.0293 129.002 25.8734C128.625 25.6043 128.263 25.3553 127.911 25.0477C127.836 24.9809 127.808 24.9748 127.741 24.9222C127.447 24.6895 126.652 23.9669 126.403 23.7281C126.17 23.5055 125.984 23.3071 125.762 23.0926C125.551 22.8882 125.355 22.6818 125.144 22.4571L122.825 19.737C122.679 19.563 122.446 19.2007 122.301 19.0104C122.113 18.7655 121.965 18.5287 121.785 18.2697C121.602 18.0086 121.453 17.7516 121.291 17.4885C120.651 16.436 119.593 14.2523 119.407 13.0865C119.125 11.3298 119.03 9.27148 119.906 7.67665C120.607 6.39958 122.408 5.37954 124.104 5.82682C124.424 5.91182 124.752 6.04945 125.025 6.18302L125.812 6.65054C125.897 6.70721 127.105 7.6382 127.203 7.74749L127.275 7.66249L127.277 7.41557C127.087 7.26176 126.907 7.05127 126.689 6.88936C126.486 6.73959 126.284 6.57364 126.051 6.41172C125.756 6.20731 124.962 5.74991 124.557 5.673C124.657 5.09822 125.359 4.19557 125.707 3.74221C126.326 2.93266 126.956 2.20811 127.769 1.56653C127.939 1.43296 129.065 0.611258 129.247 0.661855C129.388 0.702333 129.882 1.01806 130.026 1.11318C130.603 1.48963 130.9 1.72035 131.4 2.15346C131.503 2.24251 131.611 2.36799 131.71 2.46109C132.268 2.98123 133.238 4.11461 133.616 4.79464C133.728 4.995 133.958 5.39573 134.011 5.62038C133.384 5.78634 132.961 6.05147 132.434 6.37125C132.204 6.51089 131.975 6.69912 131.76 6.86103C131.552 7.01889 131.354 7.22533 131.157 7.38724L131.155 7.38521ZM124.258 5.57586C123.479 5.36335 122.681 5.44026 121.938 5.70134C121.331 5.91587 120.643 6.29636 120.257 6.774C119.765 7.37914 119.53 7.73332 119.257 8.53276C119.012 9.24719 118.903 10.1782 118.903 11.0181C118.903 13.0258 119.696 15.1003 120.412 16.7457C120.576 17.1221 121.386 18.3891 121.643 18.7291L122.317 19.65C122.556 19.9961 123.12 20.6437 123.396 20.9878C123.509 21.1315 123.645 21.2731 123.77 21.4108L124.151 21.8499C124.665 22.4207 125.191 22.9732 125.723 23.4933L126.95 24.6591C127.095 24.7907 127.243 24.906 127.389 25.0396C127.537 25.1772 127.664 25.2865 127.812 25.414C128.061 25.6286 129.069 26.432 129.21 26.4219C129.307 26.4138 130.064 25.8451 130.153 25.7743C130.299 25.6549 130.447 25.5294 130.597 25.4181C130.746 25.3068 130.886 25.1631 131.036 25.0376C131.433 24.7117 133.003 23.21 133.487 22.6777C133.742 22.3984 134.003 22.1292 134.27 21.8419L135.377 20.5547C136.162 19.5994 137.526 17.7516 137.996 16.7457C138.079 16.5656 138.154 16.3612 138.237 16.1628C139.198 13.8718 139.987 11.1942 139.17 8.58538C139.026 8.12393 138.779 7.60582 138.508 7.21926C138.423 7.09782 138.289 6.9096 138.211 6.83067C138.083 6.70316 138.008 6.62018 137.881 6.49875C137.543 6.17898 137.041 5.91385 136.587 5.74182C136.144 5.57383 135.365 5.40788 134.867 5.4524C134.661 5.47062 134.46 5.52324 134.28 5.5374C134.09 5.11036 134.181 5.1812 133.885 4.65904C133.736 4.39391 133.541 4.12068 133.371 3.89603C132.961 3.3516 132.08 2.37002 131.532 1.90655C131.074 1.51998 130.593 1.13342 130.081 0.803527C129.965 0.728643 129.36 0.358272 129.251 0.329937C129.036 0.277316 127.743 1.17997 127.482 1.41677C127.411 1.48153 127.373 1.50784 127.308 1.56249C126.812 1.98143 126.148 2.67765 125.737 3.20588C125.306 3.76448 124.744 4.47486 124.442 5.10024C124.383 5.22168 124.296 5.50907 124.256 5.57383L124.258 5.57586Z" fill="#FEFEFE"/>
<path fill-rule="evenodd" clip-rule="evenodd" d="M132.874 16.7181C132.874 16.7586 132.883 16.7444 132.838 16.7363L132.804 16.7707L132.765 16.7788L132.729 16.8112L132.69 16.8416L132.628 16.8558V15.6131H132.401V16.876C132.401 17.0217 132.391 16.9812 132.364 17.0075C132.263 17.0905 131.81 17.297 131.656 17.3435L131.648 15.69L131.401 15.6961L131.399 17.4467C131.245 17.4993 130.788 17.6532 130.634 17.643L130.626 15.69L130.379 15.6961L130.369 17.6957C130.237 17.7483 129.693 17.7908 129.523 17.7847L129.521 15.6637L129.3 15.6536C129.246 15.7608 129.278 17.6795 129.278 17.7766C128.999 17.7726 128.711 17.7442 128.454 17.6997L128.448 15.69L128.199 15.688V17.6471C128.035 17.643 127.584 17.5034 127.432 17.4427L127.424 15.69L127.179 15.692V17.3395C126.936 17.2868 126.667 17.0905 126.447 17.0096L126.44 15.605L126.194 15.607L126.19 16.8436C126.052 16.8011 125.692 16.5279 125.564 16.4429L125.556 15.607H125.311L125.309 16.2425C125.208 16.2 125.014 16.0037 124.919 15.9248C124.716 15.7548 124.601 15.603 124.481 15.6799C124.293 15.8458 124.587 16.2364 124.678 16.3943C124.927 16.8274 125.204 17.2039 125.554 17.5702C125.791 17.8191 126.092 18.0701 126.382 18.2704C127.165 18.8088 128.003 19.1104 128.982 19.2055C129.001 19.3714 128.954 19.42 129.041 19.5313C129.09 19.5961 129.15 19.6771 129.211 19.7277C129.284 19.6771 129.32 19.5981 129.391 19.5232C129.462 19.4484 129.476 19.3492 129.486 19.2439C129.49 19.2095 130.258 19.1468 130.44 19.1104C130.723 19.0517 131.021 18.9667 131.269 18.8695C131.802 18.6671 132.255 18.404 132.652 18.1065C133.204 17.6936 133.299 17.5459 133.733 17.044C133.848 16.9104 134.617 15.8296 134.352 15.6758C134.164 15.5686 133.82 16.1029 133.522 16.2364L133.514 15.605H133.269L133.267 16.4489C133.144 16.5238 133 16.6493 132.868 16.7161L132.874 16.7181Z" fill="#FEFEFE"/>
<path fill-rule="evenodd" clip-rule="evenodd" d="M132.485 10.0156C132.524 9.94475 132.607 9.90225 132.692 9.84153L133.323 9.44687C133.661 9.28496 133.922 9.15138 134.333 9.07043C136.27 8.68994 136.776 10.9162 136.456 12.2844C136.367 12.6628 136.244 12.9988 136.126 13.3469C135.639 14.7737 134.495 16.7572 133.722 17.8966C133 18.9592 132.732 19.2951 131.929 20.2747C131.824 20.4042 131.7 20.5236 131.595 20.6451C131.534 20.7139 131.486 20.7381 131.474 20.8636C131.463 20.977 131.457 21.1085 131.459 21.2198C131.575 21.1834 131.617 21.1085 131.682 21.0296C131.951 20.7098 132.271 20.3921 132.56 20.0379C132.623 19.961 132.651 19.9063 132.726 19.8173C132.783 19.7525 132.842 19.6898 132.892 19.6189C132.998 19.4732 133.119 19.3376 133.224 19.198C133.329 19.0603 133.419 18.9166 133.54 18.7608C133.91 18.2892 134.985 16.6195 135.283 16.0124C135.614 15.3384 135.973 14.7495 136.236 13.9784C136.728 12.5374 137.321 10.3212 136.141 9.25865C135.22 8.43088 133.779 8.71018 132.745 9.34568C132.597 9.43675 132.107 9.77272 131.998 9.8982C131.971 9.92856 131.973 9.93463 131.971 9.93868L131.955 9.9913L129.446 9.99939C129.458 10.0561 129.543 10.137 129.591 10.1775C129.666 10.2342 129.778 10.2139 129.895 10.2139L133.313 10.22C133.791 10.22 134.101 10.1714 134.451 10.4224C134.677 10.5863 134.908 10.9081 134.884 11.3554C134.86 11.7683 134.611 12.0314 134.331 12.169C133.866 12.3997 132.38 12.254 131.735 12.2783C131.775 12.3633 131.799 12.3714 131.878 12.4483C131.929 12.4969 131.971 12.5313 132.004 12.5859C131.929 12.6507 131.832 12.7316 131.799 12.8207L134.556 12.849C134.56 13.0049 134.337 13.4683 134.354 13.9318C134.36 14.1281 134.4 14.3062 134.451 14.4762C134.503 14.6523 134.582 14.8061 134.617 14.9701C133.718 14.9944 132.779 14.968 131.876 14.966L129.824 14.962C129.664 14.9599 129.646 14.9417 129.557 15.0308C129.516 15.0713 129.427 15.1542 129.405 15.1947L135.177 15.2008L135.189 14.9215C134.878 14.8871 134.904 14.877 134.805 14.6058C134.607 14.0674 134.7 13.2902 134.938 12.8713L135.177 12.8551L135.171 12.5697L134.4 12.5596C134.469 12.4989 134.576 12.4766 134.659 12.4281C135.297 12.0395 135.299 11.064 134.979 10.5317C134.787 10.2079 134.522 10.0156 133.997 10.0156C133.491 10.0156 132.985 10.0156 132.481 10.0115L132.485 10.0156Z" fill="#FEFEFE"/>
<path fill-rule="evenodd" clip-rule="evenodd" d="M127.482 21.2282C127.494 21.1432 127.48 20.961 127.472 20.8659C127.464 20.7566 127.407 20.7283 127.348 20.6595C127.164 20.4449 126.842 20.109 126.695 19.9025C126.454 19.5686 126.1 19.178 125.788 18.7327L125.221 17.911C125.114 17.7552 125.037 17.6358 124.942 17.482L124.679 17.063C124.009 16.0207 123.24 14.5109 122.817 13.3613C122.693 13.0294 122.568 12.657 122.491 12.2988C122.256 11.2484 122.513 9.7406 123.452 9.25891C124.175 8.88854 124.948 9.097 125.638 9.44308C125.818 9.53214 126.419 9.8762 126.486 9.99156C125.784 10.032 124.418 9.99156 123.588 9.99358C123.483 9.99358 123.479 9.97537 123.462 10.0583C123.456 10.0867 123.458 10.2182 123.458 10.2547C123.736 10.3356 123.717 10.2385 123.843 10.5562C124.098 11.2018 123.811 12.1389 123.703 12.1915L123.487 12.2077L123.467 12.3352C123.464 12.3797 123.469 12.4344 123.471 12.4789C123.632 12.487 124.138 12.4627 124.236 12.5052C123.037 12.8817 123.292 15.1666 124.499 15.1808C125.25 15.1889 126.004 15.1828 126.755 15.1849C127.502 15.1889 128.273 15.2091 129.016 15.1909C128.988 15.1201 128.915 15.0472 128.856 15.0007C128.783 14.94 128.702 14.9602 128.579 14.9622L125.298 14.9562C124.831 14.9541 124.535 15.0007 124.209 14.7477C123.657 14.3186 123.598 13.4301 124.181 12.9768C124.483 12.744 124.839 12.7623 125.274 12.7683C125.709 12.7744 126.148 12.7785 126.585 12.7785C126.551 12.6975 126.504 12.659 126.423 12.5882C126.464 12.5234 126.527 12.4749 126.585 12.4162C126.64 12.3615 126.721 12.313 126.731 12.2361L123.938 12.2138C123.93 12.1065 124.189 11.5075 124.205 11.1998C124.238 10.6534 123.958 10.4024 123.89 10.2081C124.474 10.1778 125.875 10.2081 126.551 10.2101L128.534 10.2142C128.698 10.2142 128.86 10.2567 128.99 10.0077C128.476 9.97739 127.873 10.0017 127.35 9.99965C127.225 9.99965 127.063 10.0219 126.992 9.9612C126.735 9.74464 126.618 9.64345 126.302 9.44106C125.3 8.79746 123.677 8.30971 122.699 9.34391C122.436 9.62119 122.26 9.9531 122.173 10.4388C121.783 12.5902 123.42 15.786 124.622 17.5953L125.29 18.5688C125.581 18.9958 126.164 19.7406 126.533 20.1758C126.597 20.2527 126.662 20.3093 126.717 20.3782C126.844 20.5401 126.935 20.6615 127.099 20.8173C127.219 20.9307 127.389 21.1553 127.488 21.2201L127.482 21.2282Z" fill="#FEFEFE"/>
<path fill-rule="evenodd" clip-rule="evenodd" d="M131.094 7.59322L131.157 7.38881C131.173 7.13583 131.063 6.85653 130.8 6.99415C130.64 7.07713 130.462 7.24916 130.24 7.21881C130.268 7.04677 130.481 6.97999 130.582 6.79986C130.665 6.65009 130.748 6.36068 130.659 6.18865C130.533 6.25341 130.608 6.3546 130.438 6.39508C130.286 6.10162 130.59 5.90935 130.367 5.5835C130.246 5.40338 130.076 5.18075 129.865 5.10182C129.954 4.70513 129.95 4.51286 129.703 4.26393C129.594 4.15464 129.272 3.82474 129.056 3.8126C129.038 4.05749 129.327 3.94618 129.133 4.71121C129.088 4.88728 128.866 5.45195 128.914 5.57136C128.985 5.65839 129.123 5.64827 129.24 5.70291C129.238 5.81018 129.052 6.01459 128.955 6.05507C128.738 5.75351 128.758 5.02491 128.955 4.59989C129.015 4.47239 129.127 4.33274 129.121 4.18499C128.983 4.19511 128.345 4.66061 128.374 5.02086C128.386 5.19087 128.408 5.39326 128.299 5.4904C128.192 5.46409 128.21 5.37302 128.131 5.28599C128.026 5.39326 128.032 5.66851 128.082 5.83649C128.139 6.01864 128.617 6.38496 128.4 6.80391C128.355 6.88689 128.293 6.93344 128.173 6.9132C128.125 6.9051 127.971 6.80188 127.93 6.84034C127.856 7.00832 127.991 7.33821 128.06 7.48191C128.145 7.66001 128.25 7.87657 128.485 7.80573C128.766 7.72275 129.288 7.30583 129.374 7.0994C129.315 6.97999 129.121 7.04677 129.446 6.55497C129.513 6.4558 129.736 6.1421 129.742 5.98221C129.75 5.72922 129.631 5.49243 129.511 5.36695C129.323 5.17265 129.653 4.99657 129.837 4.95812C129.752 5.26575 129.928 5.4135 129.973 5.72517C130.013 6.00852 129.962 6.30198 129.894 6.56711C129.673 7.41512 129.163 7.48798 129.173 7.75716C129.428 7.80371 129.805 7.56894 130.021 7.5062C130.025 7.77133 130.222 8.21456 130.483 8.1417C130.566 8.11944 130.748 7.95955 130.815 7.90086C130.966 7.76526 131.025 7.64382 131.094 7.59322Z" fill="white"/>
<path fill-rule="evenodd" clip-rule="evenodd" d="M128.406 20.3883C128.73 21.123 129.384 20.4814 129.746 20.5239C129.847 20.7 129.86 20.8234 129.807 21.0683C129.576 20.6858 129.698 20.957 128.868 20.9772C128.872 20.9813 128.878 20.9874 128.88 20.9914L128.918 21.0299C128.941 21.0481 128.953 21.0541 128.975 21.0663C129.022 21.0926 129.044 21.1027 129.09 21.131C129.204 21.1999 129.463 21.3921 129.572 21.3638C129.649 21.3456 129.742 21.2525 129.781 21.2262C129.738 21.552 129.281 22.3838 129.244 23.0558C129.222 23.4808 129.493 24.685 129.505 25.1667C129.615 25.1222 130.27 24.6202 130.42 24.5089C130.467 24.4725 130.495 24.4603 130.536 24.428C130.499 24.3369 130.394 24.2418 130.331 24.1527C130.287 24.088 130.222 23.9159 130.177 23.8289C130.034 23.5557 130.066 23.3715 130.163 23.0639C130.313 22.5963 130.544 22.1774 130.72 21.7301C130.9 21.2788 131.048 20.6433 130.77 20.2021C130.665 20.0361 130.467 19.8499 130.293 19.7447C129.544 19.2974 129.596 19.5423 129.343 19.8074C128.876 20.2972 128.504 20.2992 128.404 20.3883H128.406Z" fill="#FEFEFE"/>
<path fill-rule="evenodd" clip-rule="evenodd" d="M134.329 14.7737C134.272 14.4762 134.159 14.2879 134.155 13.9176C134.149 13.5573 134.262 13.3529 134.299 13.0574L131.998 13.0351C131.56 13.0311 131.637 12.9765 131.405 13.2092C131.2 13.4136 129.911 14.6522 129.85 14.7676L134.329 14.7737V14.7737Z" fill="#FEFEFE"/>
<path fill-rule="evenodd" clip-rule="evenodd" d="M124.245 10.4166C124.322 10.7222 124.443 10.8194 124.409 11.2464C124.382 11.5662 124.257 11.7666 124.212 12.0135C124.678 12.0479 125.23 12.0256 125.706 12.0297L126.825 12.0398C127.007 12.0418 126.999 12.0175 127.088 11.9244C127.489 11.5095 127.969 11.0602 128.394 10.6332C128.491 10.536 128.523 10.5381 128.57 10.4247L124.243 10.4207L124.245 10.4166Z" fill="#FEFEFE"/>
<path fill-rule="evenodd" clip-rule="evenodd" d="M125.284 13.4472C124.724 13.4107 124.266 13.5747 124.509 13.3298C124.596 13.2428 124.677 13.2691 124.817 13.2691C125.062 13.2711 125.304 13.2691 125.547 13.2691C125.788 13.2691 125.964 13.2144 126.092 13.3864C125.924 13.5362 124.594 13.7143 124.952 14.0725C125.118 14.2385 125.491 14.2668 125.768 14.2001C126.329 14.0685 126.163 13.9208 126.369 13.8135C126.379 14.1818 126.193 14.2547 125.889 14.3458C125.596 14.4328 125.323 14.4409 125.011 14.3539C124.442 14.194 124.369 13.7912 125.098 13.5342C125.169 13.5099 125.23 13.4957 125.282 13.4472H125.284ZM128.583 14.7586C128.533 14.6595 127.183 13.3561 126.984 13.1578C126.749 12.923 126.808 12.9857 126.367 12.9817C126.102 12.9796 125.837 12.9756 125.57 12.9736C125.041 12.9675 124.527 12.9068 124.209 13.2124C123.932 13.4795 123.896 14.0462 124.145 14.4004C124.434 14.8052 124.782 14.7526 125.387 14.7546C125.918 14.7546 126.45 14.7586 126.982 14.7586C127.504 14.7586 128.065 14.7809 128.583 14.7586V14.7586Z" fill="#FEFEFE"/>
<path fill-rule="evenodd" clip-rule="evenodd" d="M133.43 11.3396C133.317 11.2182 132.9 11.4145 133.113 10.9955C133.186 10.8518 133.315 10.6798 133.548 10.7425C133.997 10.862 133.922 12.137 132.238 11.8233C131.53 11.6918 131.755 11.0927 131.987 11.0684C131.977 11.5582 132.129 11.6553 132.609 11.6756C132.833 11.6837 133.582 11.6128 133.43 11.3396V11.3396ZM129.854 10.4268C129.931 10.53 130.091 10.6697 130.192 10.7689C130.314 10.8862 130.417 10.9895 130.536 11.1089C130.771 11.3396 130.992 11.5541 131.224 11.7869C131.382 11.9447 131.463 12.0743 131.605 12.0783L133.704 12.0945C135.187 12.0965 134.876 10.1981 133.558 10.4369L133.647 10.5078C133.651 10.5098 133.657 10.526 133.659 10.5219C133.661 10.5199 133.667 10.5321 133.671 10.5381C133.631 10.615 133.594 10.6211 133.542 10.6839L133.386 10.5968L133.24 10.7122C133.182 10.6717 133.121 10.6454 133.086 10.5786L133.238 10.4572L133.382 10.5381C133.439 10.4936 133.459 10.4875 133.493 10.4248C132.779 10.4248 130.399 10.3884 129.85 10.4248L129.854 10.4268Z" fill="#FEFEFE"/>
<path fill-rule="evenodd" clip-rule="evenodd" d="M128.444 12.272C128.371 12.4582 128.037 12.9217 128.436 13.2293C128.802 13.5107 129.191 13.1646 129.11 12.7355C129.09 12.6262 129.033 12.5898 129.092 12.4866C129.168 12.351 129.482 12.0798 129.604 11.9725C129.709 11.8814 129.846 11.7256 130.075 11.7721C130.555 11.8693 130.508 12.7821 129.67 12.8104C129.361 12.8205 129.419 12.9096 129.3 13.1302C128.901 13.877 128.27 13.5673 128.106 13.1949C127.958 12.861 128.14 12.2882 128.444 12.272ZM128.938 12.1587C128.946 11.8673 128.909 11.8835 129.166 11.9158L129.142 12.1769L128.938 12.1587V12.1587ZM127.375 12.5898C127.444 12.7072 128.136 13.3568 128.29 13.5127C128.448 13.6705 128.592 13.8082 128.75 13.966C128.863 14.0794 129.1 14.3384 129.213 14.4113C129.32 14.3425 129.565 14.0753 129.676 13.966C129.834 13.8082 129.978 13.6705 130.136 13.5127C130.286 13.3629 130.99 12.7011 131.051 12.5898C131.002 12.4663 130.229 11.7458 130.142 11.6588C130.002 11.5192 129.314 10.8108 129.213 10.7602C129.11 10.8148 127.796 12.1405 127.481 12.4522C127.464 12.4684 127.434 12.4947 127.424 12.5109C127.375 12.5696 127.404 12.521 127.373 12.5898H127.375Z" fill="#FEFEFE"/>
<path fill-rule="evenodd" clip-rule="evenodd" d="M127.081 12.5969C127.116 12.5261 127.094 12.5666 127.138 12.516C127.3 12.3217 129.194 10.488 129.219 10.4739C129.324 10.5407 130.605 11.8339 130.815 12.0404L131.287 12.5038C131.344 12.5666 131.313 12.516 131.348 12.5929L129.221 14.7038L127.083 12.601L127.081 12.5969ZM129.217 15.0701C129.328 14.9952 130.392 13.9206 130.475 13.8254C130.799 13.4611 131.34 12.9896 131.72 12.5888C131.665 12.4795 130.645 11.5101 130.467 11.336C130.044 10.9232 129.623 10.5123 129.217 10.0954C129.085 10.2249 126.756 12.5038 126.713 12.5888L129.217 15.0701Z" fill="#FEFEFE"/>
<path fill-rule="evenodd" clip-rule="evenodd" d="M127.623 8.71533C127.639 8.75986 128.275 9.70906 128.352 9.72728H130.082C130.143 9.71513 130.23 9.56132 130.285 9.48643C130.402 9.32048 130.77 8.8226 130.813 8.71331C130.361 8.72545 130.198 8.68093 129.857 8.48663C129.437 8.24579 129.325 7.98876 129.218 7.93209C129.078 8.02721 129.046 8.1871 128.58 8.48866C128.281 8.68295 128.042 8.71128 127.625 8.71533H127.623Z" fill="#FEFEFE"/>
<path fill-rule="evenodd" clip-rule="evenodd" d="M134.025 19.0074L135.112 19.0297C135.1 19.1754 134.906 19.307 134.867 19.477L135.124 19.5883L135.768 18.7565C135.867 18.6148 135.98 18.4671 136.082 18.3173C136.369 17.8903 137.381 16.3582 137.456 15.9939C137.27 15.917 136.911 15.664 136.735 15.5972C136.683 15.6984 136.62 15.7409 136.59 15.8603C136.743 15.9271 136.897 16.0445 137.057 16.1193C137.049 16.2145 136.972 16.3683 136.917 16.431C136.733 16.342 136.579 16.176 136.454 16.1538C136.42 16.2469 136.367 16.2995 136.337 16.3926C136.446 16.5201 136.654 16.5828 136.772 16.7123C136.723 16.8176 136.644 16.9168 136.608 17.02C136.432 16.9451 136.286 16.7731 136.12 16.6962L135.964 16.939C136.031 16.9795 136.126 17.0564 136.197 17.1131C136.276 17.1778 136.349 17.2203 136.416 17.2831C136.326 17.5098 135.59 18.4327 135.505 18.6047C135.323 18.5338 134.792 18.0926 134.566 17.9813C134.513 18.0259 134.509 18.038 134.469 18.0967C134.406 18.1837 134.412 18.1493 134.394 18.2545L135.213 18.7706L134.048 18.7322L134.023 19.0034L134.025 19.0074Z" fill="#FEFEFE"/>
<path fill-rule="evenodd" clip-rule="evenodd" d="M132.08 22.673C132.046 22.754 131.914 22.9523 131.785 22.8815C131.667 22.8167 131.71 22.5435 131.718 22.3937C131.805 22.4241 131.985 22.6103 132.08 22.671V22.673ZM134.001 20.5924C133.922 20.5135 133.821 20.3637 133.857 20.1998C133.944 19.8072 134.557 19.9711 134.272 20.301C134.213 20.3678 134.045 20.5621 133.999 20.5924H134.001ZM133.094 22.0294C133.145 21.9485 133.181 21.912 133.236 21.8392C133.266 21.8007 133.276 21.7845 133.305 21.7481C133.325 21.7238 133.325 21.7198 133.349 21.6995C133.382 21.6712 133.353 21.6934 133.398 21.6671L133.471 21.6003C133.578 21.4162 133.588 21.4708 133.669 21.3818L133.799 21.2138C133.839 21.1672 133.813 21.1956 133.857 21.1672C133.96 21.1106 134.381 20.6107 134.489 20.4933C134.586 20.386 134.675 20.2241 134.675 20.0237C134.677 19.7121 134.254 19.3801 133.958 19.5967C133.463 19.9549 133.335 20.2342 133.784 20.8313C133.722 20.9304 133.529 21.1389 133.408 21.1956C133.325 21.1652 133.24 21.0843 133.177 21.0195L132.928 21.2279C132.965 21.3049 133.098 21.4081 133.167 21.4506C133.096 21.6368 132.404 22.3208 132.248 22.4605C132.102 22.3795 131.821 22.0031 131.548 22.0861C131.455 22.2197 131.463 22.669 131.491 22.8572C131.532 23.1122 131.686 23.2903 131.874 23.3571C131.963 23.2417 132.072 23.1203 132.175 23.0069L132.793 22.3472C132.841 22.2885 133.056 22.0557 133.098 22.0274L133.094 22.0294Z" fill="#FEFEFE"/>
<path fill-rule="evenodd" clip-rule="evenodd" d="M127.378 12.5896C127.408 12.5188 127.378 12.5694 127.428 12.5107C127.438 12.4965 127.469 12.4682 127.485 12.452C127.801 12.1403 129.114 10.8147 129.217 10.76C129.32 10.8106 130.007 11.519 130.146 11.6587C130.233 11.7457 131.006 12.4662 131.055 12.5896C130.992 12.701 130.29 13.3628 130.14 13.5125C129.982 13.6704 129.841 13.808 129.681 13.9659C129.569 14.0752 129.325 14.3423 129.217 14.4111C129.104 14.3383 128.867 14.0792 128.754 13.9659C128.596 13.8101 128.452 13.6704 128.294 13.5125C128.139 13.3567 127.448 12.707 127.38 12.5896H127.378ZM129.219 14.7006L131.346 12.5896C131.314 12.5127 131.342 12.5633 131.286 12.5006L130.814 12.0371C130.604 11.8307 129.322 10.5374 129.217 10.4706C129.195 10.4848 127.299 12.3205 127.137 12.5127C127.092 12.5654 127.116 12.5249 127.08 12.5937L129.217 14.6965L129.219 14.7006Z" fill="white"/>
<path fill-rule="evenodd" clip-rule="evenodd" d="M138.317 9.70445C138.191 9.73076 138.013 9.76314 137.91 9.836L137.991 10.0465L138.384 9.99184C138.479 10.2428 138.493 10.6941 138.503 10.9977C138.509 11.1839 138.509 11.3721 138.503 11.5604C138.499 11.6433 138.493 11.7304 138.485 11.8154C138.469 11.9651 138.473 11.9753 138.414 12.0198C138.272 12.121 137.58 11.9894 137.372 11.9712V12.2586L138.697 12.3173C138.882 11.5664 138.799 10.4897 138.641 9.73278C138.59 9.49194 138.382 8.52047 138.189 8.40309C138.104 8.35046 137.995 8.34642 137.9 8.39904C137.833 8.43547 137.513 8.61357 137.475 8.65L137.576 8.95561C137.746 8.90501 137.886 8.76536 138.046 8.73298C138.185 9.01835 138.131 8.99001 137.758 9.14585L137.855 9.39682L138.222 9.31181L138.319 9.70445H138.317Z" fill="#FEFEFE"/>
<path fill-rule="evenodd" clip-rule="evenodd" d="M128.483 24.5786C128.445 25.0036 128.26 25.3032 129.365 25.3335L129.009 23.1255L128.631 23.0202L128.483 24.5806V24.5786Z" fill="#FEFEFE"/>
<path fill-rule="evenodd" clip-rule="evenodd" d="M136.23 6.81527L136.581 6.92861C136.556 7.05207 136.461 7.09052 136.332 7.11278C136.267 7.02373 136.234 6.96909 136.23 6.81527ZM136.024 7.16743C135.763 7.42446 135.627 7.63697 135.571 8.17735L135.898 8.2745C135.913 8.13485 135.945 7.84948 135.983 7.73614C136.03 7.60661 136.18 7.44875 136.33 7.4447C136.609 7.80698 136.267 8.19961 136.332 8.487C136.396 8.52951 136.469 8.55986 136.576 8.56391C136.607 8.34938 136.655 8.13687 136.698 7.92436C136.771 7.54387 136.736 7.61066 136.599 7.32732C136.702 7.2585 136.999 7.19171 137.127 6.87396L135.935 6.43073C135.856 6.87194 135.898 6.82741 136.022 7.16743H136.024Z" fill="#FEFEFE"/>
<path fill-rule="evenodd" clip-rule="evenodd" d="M129.348 12.5685C129.394 12.4652 129.556 12.3276 129.647 12.2507C129.722 12.1839 129.886 11.9856 130.036 12.1131C130.176 12.2345 129.955 12.4612 129.89 12.4956C129.795 12.5462 129.475 12.5685 129.35 12.5685H129.348ZM128.443 12.277C128.14 12.2952 127.958 12.866 128.105 13.1999C128.269 13.5723 128.903 13.882 129.299 13.1351C129.419 12.9145 129.36 12.8255 129.67 12.8154C130.508 12.7891 130.554 11.8743 130.075 11.7771C129.844 11.7306 129.706 11.8844 129.603 11.9775C129.482 12.0847 129.168 12.3559 129.091 12.4915C129.034 12.5948 129.091 12.6312 129.109 12.7405C129.19 13.1696 128.801 13.5156 128.435 13.2343C128.034 12.9247 128.37 12.4632 128.443 12.277Z" fill="white"/>
<path fill-rule="evenodd" clip-rule="evenodd" d="M127.274 7.4195L127.272 7.66641C127.339 8.03071 127.272 7.99833 127.668 8.26144C127.82 8.36061 127.814 8.38692 127.97 8.3181C128.077 8.27155 128.223 8.23512 128.318 8.17846C128.083 8.04488 128 8.05905 127.897 7.75749C127.577 6.83055 128.089 6.66863 128.122 6.48041C128.136 6.39743 127.94 5.94813 127.897 5.8692C127.794 6.30838 127.778 6.28814 127.567 6.61601C127.478 6.75769 127.523 6.869 127.434 7.02889C127.343 7.19282 127.332 7.22318 127.274 7.42152V7.4195Z" fill="white"/>
<path fill-rule="evenodd" clip-rule="evenodd" d="M127.692 21.3689C127.821 21.8627 129.08 22.3464 129.114 21.8485C129.118 21.7838 129.092 21.6502 129.052 21.6016L128.23 21.0997C128.137 21.039 127.969 20.8265 127.839 20.8609C127.686 20.9013 127.639 21.1725 127.69 21.3689H127.692Z" fill="#FEFEFE"/>
<path fill-rule="evenodd" clip-rule="evenodd" d="M137.792 15.1145L137.671 15.3553C137.624 15.3229 137.618 15.3148 137.582 15.2582C137.556 15.2157 137.549 15.2096 137.535 15.1549L137.792 15.1145V15.1145ZM136.835 15.3897C137.062 15.4929 137.102 15.3776 137.335 15.3331L137.58 15.6974C137.606 15.7419 137.586 15.7156 137.616 15.752C137.675 15.8208 137.622 15.7662 137.681 15.8026L138.076 14.7583L137.549 14.8878L137.505 14.6085L136.758 14.2928L136.647 14.5377C136.734 14.6206 136.93 14.6712 137.056 14.7198C137.258 14.8008 137.262 14.823 137.311 15.0517C136.914 15.2501 136.965 15.0315 136.487 14.9505C136.432 15.0153 136.382 15.1145 136.367 15.2055C136.497 15.242 136.716 15.3411 136.837 15.3958L136.835 15.3897Z" fill="#FEFEFE"/>
<path fill-rule="evenodd" clip-rule="evenodd" d="M125.287 13.4469C125.236 13.4955 125.175 13.5097 125.103 13.5339C124.374 13.789 124.447 14.1937 125.016 14.3536C125.325 14.4406 125.598 14.4326 125.894 14.3455C126.197 14.2544 126.384 14.1816 126.374 13.8132C126.167 13.9225 126.333 14.0683 125.772 14.1998C125.495 14.2666 125.123 14.2383 124.957 14.0723C124.599 13.7161 125.928 13.538 126.096 13.3862C125.969 13.2142 125.793 13.2688 125.552 13.2688C125.309 13.2688 125.066 13.2708 124.821 13.2688C124.682 13.2688 124.601 13.2425 124.514 13.3295C124.271 13.5724 124.728 13.4105 125.289 13.4469H125.287Z" fill="white"/>
<path fill-rule="evenodd" clip-rule="evenodd" d="M124.594 18.724C124.57 18.6633 124.541 18.633 124.507 18.5803L124.408 18.465C124.201 18.548 123.701 18.9001 123.454 19.0236C123.481 19.1025 123.503 19.1349 123.566 19.1875C123.703 19.143 124.116 18.8434 124.29 18.7787L123.697 19.3575C123.717 19.4425 123.754 19.487 123.803 19.5397C123.964 19.5498 124.438 19.3231 124.653 19.3029L123.942 19.7421C123.97 19.7684 123.97 19.7866 123.995 19.821L124.068 19.8918C124.136 19.8635 124.244 19.7906 124.315 19.7502L125.015 19.3211C124.991 19.2543 124.867 19.0944 124.821 19.058L124.082 19.2685L124.596 18.7261L124.594 18.724Z" fill="#FEFEFE"/>
<path fill-rule="evenodd" clip-rule="evenodd" d="M133.553 11.2314C133.502 11.2051 133.537 11.2213 133.486 11.1929C133.466 11.1808 133.448 11.1707 133.427 11.1626C133.361 11.1363 133.355 11.1524 133.3 11.1099C133.32 11.0432 133.336 11.0209 133.369 10.9804C133.573 10.946 133.559 11.0513 133.551 11.2314H133.553ZM133.435 11.3386C133.589 11.6119 132.84 11.6827 132.614 11.6746C132.134 11.6544 131.982 11.5552 131.992 11.0674C131.76 11.0897 131.535 11.6888 132.243 11.8224C133.927 12.1361 134.002 10.859 133.553 10.7416C133.32 10.6789 133.191 10.8509 133.118 10.9946C132.905 11.4135 133.322 11.2172 133.435 11.3386V11.3386Z" fill="white"/>
<path fill-rule="evenodd" clip-rule="evenodd" d="M127.987 21.9438C127.945 21.9701 127.876 22.0207 127.836 22.0592C127.734 22.1503 127.738 22.4134 127.828 22.5105C127.854 22.5389 127.929 22.6097 127.961 22.6299C128.196 22.7878 128.506 22.7898 128.825 22.7534C128.973 22.7372 129.123 22.6927 129.026 22.4741C128.91 22.2191 128.744 22.3466 128.313 22.1361C128.202 22.0815 128.087 21.9782 127.989 21.9418L127.987 21.9438Z" fill="#FEFEFE"/>
<path fill-rule="evenodd" clip-rule="evenodd" d="M121.994 8.13121C122.071 8.16967 122.172 8.24253 122.214 8.30527C122.146 8.38218 121.984 8.68171 121.814 8.55218C121.65 8.42873 121.927 8.198 121.994 8.13121ZM121.49 7.73453C121.595 7.83168 121.761 7.92478 121.848 8.028C121.767 8.11097 121.741 8.15752 121.559 8.14943C121.146 8.13121 121.196 8.05835 121.051 8.21217C121.039 8.22431 121.02 8.24657 121.012 8.26074L121.008 8.31134C121.176 8.35991 121.431 8.36598 121.603 8.3336C121.549 8.49147 121.532 8.59671 121.64 8.70195C121.721 8.78088 121.885 8.83957 122.02 8.76874C122.115 8.72017 122.478 8.33158 122.514 8.23241L121.626 7.58072L121.488 7.73453H121.49Z" fill="#FEFEFE"/>
<path fill-rule="evenodd" clip-rule="evenodd" d="M121.176 11.7619C121.211 12.1039 121.19 12.2254 120.832 12.2517C120.462 12.278 120.415 12.1728 120.415 11.8206L121.176 11.7619ZM120.205 11.6243C120.184 11.7882 120.227 12.1424 120.31 12.2699C120.407 12.4177 120.597 12.4905 120.85 12.4703C121.571 12.4136 121.372 11.9056 121.352 11.5332L120.205 11.6243Z" fill="#FEFEFE"/>
<path fill-rule="evenodd" clip-rule="evenodd" d="M127.398 22.918C127.416 22.8917 127.398 22.9099 127.438 22.8715C127.465 22.8472 127.454 22.8593 127.477 22.8431C127.6 22.75 127.685 22.7258 127.734 22.6468C127.693 22.5841 127.659 22.5375 127.598 22.4971C127.442 22.6023 127.311 22.6873 127.145 22.8108C127.005 22.914 126.815 23.0192 126.694 23.1265C126.736 23.2054 126.754 23.2236 126.823 23.2864C126.922 23.2459 127.135 23.0901 127.226 23.0253C127.295 23.1002 127.44 23.254 127.493 23.3552C127.424 23.4402 127.224 23.5373 127.147 23.6122C127.117 23.6446 127.139 23.6122 127.117 23.6507C127.155 23.7114 127.197 23.7498 127.236 23.8045C127.369 23.7357 127.574 23.5819 127.71 23.4888C127.851 23.3876 128.043 23.2722 128.161 23.167L128.021 23.0051C128.005 23.0213 127.726 23.2054 127.667 23.2419C127.582 23.1751 127.473 23.0192 127.398 22.9221V22.918Z" fill="#FEFEFE"/>
<path fill-rule="evenodd" clip-rule="evenodd" d="M121.613 9.02509C121.648 9.1526 121.591 9.29832 121.48 9.33475C121.443 9.34689 121.449 9.34082 121.423 9.34689C121.261 9.38737 121.291 9.52701 121.293 9.52701C121.565 9.76381 122.044 9.0939 121.714 8.85306C121.524 8.71544 121.318 8.84699 121.22 8.94616C121.117 9.0514 121.01 9.29427 120.834 9.12021C120.779 8.86723 120.943 8.77818 121.172 8.79032L121.231 8.59198C120.965 8.55352 120.824 8.6021 120.721 8.76603C120.393 9.28617 120.899 9.54928 121.192 9.30641C121.324 9.19914 121.407 8.97247 121.609 9.02509H121.613Z" fill="#FEFEFE"/>
<path fill-rule="evenodd" clip-rule="evenodd" d="M121.946 16.0103C121.485 16.2896 121.967 17.0384 122.4 16.7591C122.693 16.5709 122.454 16.3362 122.469 16.0973C122.479 15.9152 122.649 16.0184 122.691 16.0852C122.8 16.2471 122.728 16.2572 122.673 16.3726L122.758 16.4981C122.796 16.5385 122.748 16.4981 122.805 16.5345C122.922 16.4252 123.021 16.326 122.912 16.0933C122.695 15.6318 122.23 15.7573 122.234 16.0973C122.236 16.3038 122.38 16.4434 122.258 16.5891C122.175 16.6397 121.803 16.5244 122.072 16.1601L121.948 16.0063L121.946 16.0103Z" fill="#FEFEFE"/>
<path fill-rule="evenodd" clip-rule="evenodd" d="M130.479 5.3881L130.552 5.59656C130.688 5.54798 130.919 5.38202 131.105 5.29297C131.493 5.11082 131.951 4.99141 132.24 4.7445C132.358 4.64533 132.542 4.39437 132.554 4.16364L132.43 4.03209C132.283 4.18186 132.37 4.54413 131.597 4.85379C131.214 5.0076 130.769 5.16547 130.475 5.3881H130.479Z" fill="#FEFEFE"/>
<path fill-rule="evenodd" clip-rule="evenodd" d="M127.946 5.59662C127.975 5.50757 128.009 5.4671 128.013 5.36388C127.837 5.2809 127.673 5.17363 127.469 5.08256C126.946 4.85183 126.469 4.78505 126.198 4.30538C126.151 4.2224 126.131 4.09692 126.068 4.02406C126.046 4.05037 125.993 4.11919 125.971 4.15157C125.922 4.2224 125.928 4.21026 125.963 4.30741C126.224 5.01374 126.886 5.0097 127.632 5.42257C127.742 5.48329 127.839 5.56424 127.944 5.59865L127.946 5.59662Z" fill="#FEFEFE"/>
<path fill-rule="evenodd" clip-rule="evenodd" d="M123.495 18.3062L123.333 18.0876C123.406 18.033 123.695 17.9966 123.758 18.0026C123.675 18.0816 123.574 18.2334 123.495 18.3082V18.3062ZM122.823 18.1484L123.123 18.1119L123.349 18.4722C123.313 18.5187 123.218 18.6219 123.189 18.6806L123.313 18.8547C123.376 18.8162 124.015 18.0289 124.06 17.9399L123.946 17.7618L122.724 17.9561L122.825 18.1484H122.823Z" fill="#FEFEFE"/>
<path fill-rule="evenodd" clip-rule="evenodd" d="M120.67 11.0468L120.68 10.7695C120.775 10.7776 121.024 10.8788 121.08 10.9294L120.672 11.0468H120.67ZM120.234 10.5651C120.309 10.6218 120.407 10.6501 120.49 10.6784L120.471 11.0953C120.415 11.1338 120.285 11.1642 120.202 11.1905L120.188 11.4131C120.336 11.3868 121.289 11.0893 121.368 11.0407L121.376 10.8241L120.249 10.3546L120.234 10.5651V10.5651Z" fill="#FEFEFE"/>
<path fill-rule="evenodd" clip-rule="evenodd" d="M124.639 7.25988C124.592 7.3631 124.534 7.52501 124.449 7.59787L124.337 7.21738C124.398 7.21738 124.459 7.21941 124.52 7.2275L124.639 7.26191V7.25988ZM124.546 7.87312C124.621 7.7699 125.064 6.9563 125.088 6.85511L124.864 6.83487L124.736 7.06559L124.273 7.02714C124.184 6.75594 124.262 6.77213 123.947 6.75998L124.26 7.72538C124.313 7.89539 124.337 7.87919 124.544 7.87312H124.546Z" fill="#FEFEFE"/>
<path fill-rule="evenodd" clip-rule="evenodd" d="M120.976 13.6092L120.922 13.338L121.341 13.3866C121.32 13.4513 121.059 13.5829 120.976 13.6092V13.6092ZM121.547 13.2206L120.391 13.0506C120.414 13.3279 120.46 13.2712 120.713 13.3036L120.8 13.7266L120.576 13.8561L120.622 14.0808L121.144 13.7792C121.31 13.676 121.492 13.5444 121.654 13.4696C121.638 13.2064 121.602 13.2368 121.547 13.2206Z" fill="#FEFEFE"/>
<path fill-rule="evenodd" clip-rule="evenodd" d="M126.892 22.0606C126.859 22.1537 126.728 22.3177 126.665 22.3925C126.606 22.3521 126.517 22.2468 126.487 22.1699L126.894 22.0586L126.892 22.0606ZM126.541 22.9673C126.63 22.9127 126.657 22.8155 126.722 22.7265C126.813 22.599 127.167 22.0667 127.189 21.9857C127.145 21.927 127.086 21.8562 127.041 21.8177L125.865 22.1213C125.904 22.2043 125.94 22.2326 126.001 22.3035L126.284 22.2326C126.365 22.3541 126.467 22.4512 126.545 22.5787L126.408 22.7872L126.541 22.9653V22.9673Z" fill="#FEFEFE"/>
<path fill-rule="evenodd" clip-rule="evenodd" d="M129.075 19.8853C129.043 19.7133 129.025 19.6202 128.914 19.5271C128.855 19.4785 128.693 19.3308 128.63 19.3065C128.349 19.2013 128.118 19.3854 128.175 19.8368C128.537 20.0938 128.64 20.1829 129.075 19.8833V19.8853Z" fill="#FEFEFE"/>
<path fill-rule="evenodd" clip-rule="evenodd" d="M129.509 3.70664C129.569 3.737 129.66 3.80177 129.707 3.84831C129.778 3.72283 129.847 3.47592 129.928 3.31806C130.154 2.86066 130.415 2.68255 130.32 2.18063C130.268 1.89931 130.239 1.77788 129.988 1.73537C130.083 2.18873 130.247 2.25956 129.948 2.79589C129.818 3.03066 129.557 3.40104 129.507 3.70867L129.509 3.70664Z" fill="#FEFEFE"/>
<path fill-rule="evenodd" clip-rule="evenodd" d="M128.783 3.84022C128.862 3.81796 128.917 3.75522 128.988 3.70462C128.951 3.42735 128.682 3.03269 128.557 2.81411C128.277 2.3304 128.38 2.25754 128.508 1.73537C128.249 1.7799 128.233 1.91145 128.182 2.16646C128.081 2.67446 128.322 2.8303 128.561 3.29175C128.652 3.4658 128.702 3.67224 128.785 3.84224L128.783 3.84022Z" fill="#FEFEFE"/>
<path fill-rule="evenodd" clip-rule="evenodd" d="M130.339 4.90673L130.383 5.13746L130.93 4.81768C131.104 4.72863 131.33 4.63148 131.506 4.52827C131.727 4.39874 131.84 4.31778 131.956 4.11134C132.108 3.84621 132.189 3.72883 131.978 3.54061C131.875 3.71264 131.879 3.85229 131.733 4.04658C131.525 4.3279 131.152 4.4635 130.816 4.63351C130.638 4.72256 130.495 4.81971 130.341 4.90673H130.339Z" fill="#FEFEFE"/>
<path fill-rule="evenodd" clip-rule="evenodd" d="M128.098 5.13543C128.137 5.08484 128.149 4.96138 128.159 4.89661C128.074 4.86221 128.015 4.81566 127.924 4.76708C127.129 4.33397 126.765 4.33802 126.53 3.54061C126.483 3.57299 126.459 3.60537 126.427 3.6499C126.372 3.72681 126.37 3.69645 126.4 3.80169C126.574 4.44529 127.113 4.56874 127.558 4.81363L128.098 5.13341V5.13543Z" fill="#FEFEFE"/>
<path fill-rule="evenodd" clip-rule="evenodd" d="M129.022 1.38696C128.995 1.79173 129.012 2.10746 129.103 2.47378C129.214 2.93118 129.188 3.08702 129.143 3.55859L129.38 3.58288C129.404 3.13964 129.404 2.87654 129.319 2.45962C129.226 2.00424 129.234 1.76947 129.246 1.2979L129.022 1.38696V1.38696Z" fill="#FEFEFE"/>
<path fill-rule="evenodd" clip-rule="evenodd" d="M126.831 3.15334C126.808 3.93456 127.454 3.97706 128.041 4.51541C128.104 4.57411 128.181 4.65709 128.239 4.69959L128.369 4.50327C128.245 4.30493 127.754 4.01754 127.547 3.89206C127.191 3.6755 127.07 3.53788 127.009 3.01571C126.932 3.05619 126.904 3.10274 126.833 3.15334H126.831Z" fill="#FEFEFE"/>
<path fill-rule="evenodd" clip-rule="evenodd" d="M131.512 3.02576C131.463 3.08041 131.467 3.22208 131.447 3.30708C131.334 3.77055 130.988 3.82722 130.536 4.15509L130.14 4.46475C130.152 4.56797 130.208 4.64487 130.265 4.6975C130.49 4.47082 130.757 4.24212 131.099 4.05592C131.441 3.8677 131.637 3.65924 131.676 3.14922L131.512 3.02374V3.02576Z" fill="#FEFEFE"/>
<path fill-rule="evenodd" clip-rule="evenodd" d="M129.85 4.01588C129.879 4.09886 129.931 4.14338 129.98 4.20005C130.095 4.14338 130.044 4.13529 130.144 4.00778C130.267 3.84992 130.51 3.603 130.666 3.48157C130.975 3.2387 131.099 3.09298 131.075 2.51213C131.024 2.45748 130.959 2.41093 130.87 2.3826C130.913 3.40264 130.405 3.19013 129.852 4.01385L129.85 4.01588Z" fill="#FEFEFE"/>
<path fill-rule="evenodd" clip-rule="evenodd" d="M128.478 4.20815C128.559 4.17172 128.611 4.10898 128.652 4.00576C128.541 3.89849 128.441 3.76492 128.344 3.6617C128.239 3.54634 128.118 3.45728 127.998 3.34597C127.525 2.90071 127.668 2.91083 127.62 2.3826C127.48 2.45344 127.434 2.46963 127.419 2.5607C127.367 2.92095 127.508 3.18608 127.735 3.40264C127.944 3.603 128.354 3.92885 128.476 4.20815H128.478Z" fill="#FEFEFE"/>
<path fill-rule="evenodd" clip-rule="evenodd" d="M134.905 7.92522L135.152 7.95356L135.459 6.38302L135.166 6.35266C135.121 6.68863 134.877 7.66819 134.905 7.92522Z" fill="#FEFEFE"/>
<path fill-rule="evenodd" clip-rule="evenodd" d="M136.924 8.16889C136.997 8.2033 137.074 8.23568 137.177 8.2458C137.238 8.05758 137.347 7.87948 137.493 7.81067C137.723 7.70138 137.906 7.87948 138.037 7.95841L138.152 7.78435C137.675 7.03754 136.881 7.69733 136.924 8.16687V8.16889Z" fill="#FEFEFE"/>
<path fill-rule="evenodd" clip-rule="evenodd" d="M125.414 20.5043C125.453 20.393 125.52 20.2736 125.572 20.1602C125.615 20.0692 125.617 20.0712 125.57 20.0024L125.469 19.8911C125.467 19.883 125.461 19.883 125.455 19.8789C125.352 20.0348 125.287 20.2554 125.206 20.4355C125.137 20.5934 124.922 20.7026 124.779 20.7816C124.813 20.8868 124.825 20.9071 124.908 20.9617C125.157 20.8382 125.212 20.7148 125.408 20.7026C125.576 20.6925 125.942 20.6986 126.078 20.6541L125.93 20.4658L125.416 20.5043H125.414Z" fill="#FEFEFE"/>
<path fill-rule="evenodd" clip-rule="evenodd" d="M120.365 9.79751L120.313 9.9999C121.096 10.1234 120.768 10.2225 121.353 10.6111L121.408 10.3703C121.319 10.3055 121.076 10.1355 121.031 10.0363L121.529 9.89465L121.58 9.66595C121.388 9.70238 121.167 9.78739 120.983 9.8481C120.726 9.93311 120.604 9.80763 120.365 9.79751Z" fill="#FEFEFE"/>
<path fill-rule="evenodd" clip-rule="evenodd" d="M126.112 21.3788C126.144 21.2513 126.207 21.1481 126.26 21.0307C126.347 20.8303 126.167 20.8061 126.152 20.7575C126.15 20.7494 126.142 20.7494 126.138 20.7474C125.861 21.1663 126.039 21.3019 125.701 21.5225C125.624 21.5731 125.543 21.6116 125.478 21.6885L125.614 21.8403C125.697 21.7856 125.748 21.7532 125.841 21.6865C125.918 21.6298 125.968 21.5853 126.092 21.5731C126.324 21.5509 126.541 21.5468 126.778 21.5185L126.632 21.3282L126.112 21.3808V21.3788Z" fill="#FEFEFE"/>
<path fill-rule="evenodd" clip-rule="evenodd" d="M122.917 6.91157L122.937 7.0492C123.053 7.08563 123.314 7.00467 123.52 6.99658L123.664 7.84661L123.893 7.83447C123.868 7.62803 123.767 6.91562 123.698 6.79014C123.534 6.79823 123.027 6.85693 122.915 6.91359L122.917 6.91157Z" fill="#FEFEFE"/>
<path fill-rule="evenodd" clip-rule="evenodd" d="M122.522 17.2848C122.589 17.2201 123.214 16.9084 123.34 16.8558C123.314 16.7728 123.277 16.7182 123.223 16.6676L122.239 17.1614C122.267 17.2545 122.571 17.7584 122.636 17.8232L122.787 17.7443C122.737 17.6087 122.595 17.4184 122.526 17.2828L122.522 17.2848Z" fill="#FEFEFE"/>
<path fill-rule="evenodd" clip-rule="evenodd" d="M128.439 20.8854C128.38 20.768 128.281 20.681 128.245 20.5211C128.196 20.3147 128.309 20.2216 128.439 20.1588C128.275 20.0232 127.646 19.8168 127.763 20.3572C127.82 20.6162 127.86 20.5656 128.046 20.6952C128.16 20.7741 128.309 20.8368 128.439 20.8854Z" fill="#FEFEFE"/>
<path fill-rule="evenodd" clip-rule="evenodd" d="M121.806 14.0755L121.719 13.9015C121.621 13.9177 120.735 14.282 120.68 14.3285C120.763 14.5147 120.893 14.8466 121.012 14.9964C121.087 14.9782 121.124 14.9681 121.17 14.9215C121.113 14.7515 120.996 14.6179 120.956 14.4358L121.808 14.0776L121.806 14.0755Z" fill="#FEFEFE"/>
<path fill-rule="evenodd" clip-rule="evenodd" d="M138.333 13.6625C138.385 13.5816 138.57 12.9157 138.576 12.8024L137.969 12.7133C137.942 12.7457 137.956 12.7174 137.926 12.7781L137.871 12.9825L138.189 13.021C138.22 13.0594 138.207 13.021 138.211 13.0857C138.211 13.0938 138.199 13.1525 138.197 13.1586L138.098 13.5937C138.165 13.6362 138.256 13.6524 138.333 13.6625Z" fill="#FEFEFE"/>
<path fill-rule="evenodd" clip-rule="evenodd" d="M136.991 13.9511C137.151 14.0138 137.984 14.364 138.078 14.3579L138.163 14.109L137.07 13.69L136.989 13.9511H136.991Z" fill="#FEFEFE"/>
<path fill-rule="evenodd" clip-rule="evenodd" d="M120.415 11.8194C120.415 12.1716 120.461 12.2768 120.832 12.2505C121.19 12.2242 121.21 12.1048 121.176 11.7607L120.415 11.8194Z" fill="white"/>
<path fill-rule="evenodd" clip-rule="evenodd" d="M121.911 7.3782C121.949 7.5138 122.15 7.71214 122.241 7.8275C122.314 7.9206 122.514 8.19787 122.585 8.25656L122.763 8.14727C122.712 8.03394 122.532 7.84167 122.435 7.72428C122.34 7.60689 122.168 7.40855 122.115 7.29117C121.992 7.30938 122.008 7.33974 121.911 7.38022V7.3782Z" fill="#FEFEFE"/>
<path fill-rule="evenodd" clip-rule="evenodd" d="M124.409 20.3084C124.557 20.2052 125.259 19.7863 125.334 19.7033L125.206 19.5434C125.022 19.6223 124.684 19.8773 124.498 19.9988C124.437 20.0372 124.336 20.104 124.267 20.1404L124.409 20.3084V20.3084Z" fill="#FEFEFE"/>
<path fill-rule="evenodd" clip-rule="evenodd" d="M122.534 15.4816L122.449 15.2853L121.407 15.7649L121.498 15.9511L122.534 15.4816Z" fill="#FEFEFE"/>
<path fill-rule="evenodd" clip-rule="evenodd" d="M134.001 20.5866C134.045 20.5563 134.215 20.362 134.274 20.2952C134.559 19.9653 133.946 19.8014 133.859 20.194C133.823 20.3579 133.924 20.5077 134.003 20.5866H134.001Z" fill="white"/>
<path fill-rule="evenodd" clip-rule="evenodd" d="M129.348 12.5696C129.476 12.5696 129.793 12.5474 129.889 12.4968C129.955 12.4624 130.176 12.2357 130.034 12.1143C129.885 11.9867 129.721 12.1851 129.646 12.2519C129.555 12.3308 129.393 12.4684 129.346 12.5696H129.348Z" fill="#FEFEFE"/>
<path fill-rule="evenodd" clip-rule="evenodd" d="M137.242 9.1895L137.301 9.4101L137.086 9.48498C137.098 9.52344 137.104 9.5538 137.115 9.5882C137.123 9.60844 137.127 9.62261 137.133 9.6388C137.161 9.69952 137.145 9.66916 137.171 9.70154L137.386 9.63273L137.445 9.83916C137.536 9.82904 137.59 9.81083 137.659 9.76226L137.604 9.56594C137.503 9.54975 137.501 9.58415 137.364 9.61654L137.313 9.42427L137.463 9.37165C137.517 9.34129 137.489 9.3595 137.519 9.33117L137.455 9.12675L137.244 9.19152L137.242 9.1895Z" fill="#FEFEFE"/>
<path fill-rule="evenodd" clip-rule="evenodd" d="M121.994 8.12621C121.927 8.19502 121.65 8.42372 121.814 8.54718C121.984 8.67671 122.146 8.37717 122.214 8.30026C122.172 8.23752 122.071 8.16466 121.994 8.12621Z" fill="white"/>
<path fill-rule="evenodd" clip-rule="evenodd" d="M132.08 22.6724C131.985 22.6097 131.805 22.4255 131.718 22.3951C131.708 22.5429 131.665 22.8181 131.784 22.8829C131.914 22.9537 132.046 22.7554 132.08 22.6744V22.6724Z" fill="white"/>
<path fill-rule="evenodd" clip-rule="evenodd" d="M121.405 15.0729C121.466 15.1863 121.49 15.3138 121.584 15.4271L121.776 15.3502L121.602 14.9879L121.403 15.0709L121.405 15.0729Z" fill="#FEFEFE"/>
<path fill-rule="evenodd" clip-rule="evenodd" d="M122.423 7.41714C122.443 7.50417 122.465 7.5406 122.52 7.59727L122.89 7.44548L122.813 7.25928L122.423 7.41714V7.41714Z" fill="#FEFEFE"/>
<path fill-rule="evenodd" clip-rule="evenodd" d="M136.227 6.814C136.231 6.96579 136.263 7.02246 136.328 7.11151C136.46 7.09127 136.553 7.05079 136.577 6.92733L136.227 6.814Z" fill="white"/>
<path fill-rule="evenodd" clip-rule="evenodd" d="M120.977 13.6018C121.06 13.5755 121.321 13.4419 121.341 13.3792L120.922 13.3306L120.977 13.6018V13.6018Z" fill="white"/>
<path fill-rule="evenodd" clip-rule="evenodd" d="M121.079 10.9281C121.025 10.8775 120.774 10.7763 120.679 10.7682L120.669 11.0455L121.077 10.9281H121.079Z" fill="white"/>
<path fill-rule="evenodd" clip-rule="evenodd" d="M124.449 7.59581C124.534 7.52295 124.591 7.36104 124.639 7.25782L124.52 7.22342C124.459 7.21735 124.398 7.21532 124.338 7.2133L124.449 7.59379V7.59581Z" fill="white"/>
<path fill-rule="evenodd" clip-rule="evenodd" d="M126.484 22.1689C126.515 22.2458 126.604 22.351 126.662 22.3915C126.725 22.3146 126.859 22.1527 126.889 22.0596L126.482 22.1709L126.484 22.1689Z" fill="white"/>
<path fill-rule="evenodd" clip-rule="evenodd" d="M123.495 18.3096C123.574 18.2367 123.675 18.0849 123.758 18.0039C123.694 17.9999 123.406 18.0363 123.333 18.0889L123.495 18.3075V18.3096Z" fill="white"/>
<path fill-rule="evenodd" clip-rule="evenodd" d="M128.94 12.1605L129.145 12.1787L129.169 11.9176C128.912 11.8852 128.948 11.8691 128.94 12.1605V12.1605Z" fill="white"/>
<path fill-rule="evenodd" clip-rule="evenodd" d="M133.414 21.9511L133.623 21.9491L133.627 21.746L133.41 21.7399L133.414 21.9511Z" fill="#FEFEFE"/>
<path fill-rule="evenodd" clip-rule="evenodd" d="M133.632 21.6895H133.836L133.838 21.5514L133.834 21.4742H133.634L133.632 21.6895Z" fill="#FEFEFE"/>
<path fill-rule="evenodd" clip-rule="evenodd" d="M133.296 11.1083C133.351 11.1509 133.357 11.1326 133.424 11.1611C133.445 11.1692 133.463 11.1814 133.483 11.1915C133.532 11.222 133.499 11.2037 133.55 11.2301C133.558 11.0473 133.572 10.9437 133.367 10.9783C133.333 11.0189 133.319 11.0412 133.298 11.1083H133.296Z" fill="#FEFEFE"/>
<path fill-rule="evenodd" clip-rule="evenodd" d="M137.536 15.1541C137.552 15.209 137.556 15.2151 137.582 15.2577C137.621 15.3146 137.627 15.3227 137.672 15.3552L137.794 15.1135L137.536 15.1541V15.1541Z" fill="white"/>
</g>
<defs>
<clipPath id="clip0">
<rect width="275" height="117.269" fill="white"/>
</clipPath>
</defs>
</svg>
