<svg width="124" height="40" viewBox="0 0 124 40" fill="none" xmlns="http://www.w3.org/2000/svg">
<path fill-rule="evenodd" clip-rule="evenodd" d="M59.8773 22.4245C59.7988 22.4975 59.7203 22.5605 59.6428 22.6143C59.2723 23.2549 58.8707 23.9111 58.4391 24.5827C57.7583 25.6432 57.0319 26.595 56.2626 27.44C55.4932 28.286 54.6674 28.9476 53.784 29.4276C52.9006 29.9068 51.9798 30.071 51.0207 29.9195C50.2897 29.7936 49.6837 29.4842 49.2046 28.9923C48.7246 28.4995 48.4225 27.8881 48.2966 27.1562C48.1196 26.0201 48.2519 24.9669 48.6936 23.9959C49.1353 23.025 49.671 22.0978 50.3016 21.2144C50.5543 20.8357 50.6611 20.5774 50.6237 20.4387C50.5863 20.3 50.454 20.2242 50.2267 20.2115C49.9995 20.1987 49.7029 20.2115 49.3379 20.2489C48.9719 20.2872 48.5996 20.3064 48.2209 20.3064C48.0192 20.5838 47.8357 20.8548 47.6715 21.1195C47.5081 21.385 47.2371 21.7948 46.8575 22.3496C46.58 22.7539 46.2834 22.9866 45.9686 23.0496C45.6528 23.1126 45.3818 23.0688 45.1546 22.9173C44.9273 22.7667 44.7886 22.5331 44.7384 22.2173C44.6882 21.9016 44.8014 21.5548 45.0788 21.1761C45.2048 20.999 45.2933 20.8667 45.3435 20.7782C45.3946 20.6897 45.4512 20.6011 45.5141 20.5135C45.5771 20.425 45.6592 20.3055 45.7605 20.154C45.8609 20.0025 46.0124 19.7752 46.2141 19.4723C45.8865 19.0178 45.7605 18.3626 45.8363 17.5038C45.8865 16.9234 46.1192 16.312 46.5362 15.6686C46.9533 15.0252 47.4388 14.4886 47.9936 14.0597C48.5485 13.6308 49.1106 13.3844 49.6783 13.3215C50.2459 13.2594 50.7067 13.5049 51.0599 14.0597C51.3884 14.5899 51.5016 15.0882 51.4012 15.5545C51.2999 16.0218 51.0855 16.5073 50.7578 17.0119C51.3127 16.9873 51.8931 16.9554 52.4981 16.917C53.1041 16.8796 53.5832 16.9864 53.9364 17.2392C54.1636 17.3907 54.4346 17.6051 54.7504 17.8825C55.0662 18.1591 55.3563 18.4629 55.621 18.7906C55.8866 19.1191 56.0627 19.4412 56.1512 19.7561C56.2397 20.0709 56.1695 20.3173 55.9422 20.4934C55.7159 20.696 55.3746 21.0866 54.9201 21.667C54.4657 22.2474 54.0495 22.878 53.6717 23.5597C53.2939 24.2414 53.0092 24.8839 52.8203 25.4908C52.6314 26.0958 52.6752 26.5119 52.9526 26.7392C53.1296 26.8907 53.3751 26.8587 53.6909 26.6452C54.0066 26.4307 54.3525 26.1223 54.7312 25.718C55.11 25.3146 55.5005 24.841 55.9039 24.2989C56.3082 23.7559 56.686 23.2385 57.0401 22.7466C57.3932 22.2547 57.7026 21.8067 57.9673 21.4033C58.2328 20.999 58.4153 20.7344 58.5166 20.6084C58.5486 20.5674 58.5814 20.5272 58.6143 20.4898C58.9939 19.9486 59.3462 19.4266 59.6711 18.9238C60.0872 18.2804 60.5407 17.6754 61.0335 17.1078C61.5254 16.5401 62.0994 16.0163 62.7556 15.5372C63.4117 15.0581 64.2185 14.6155 65.1776 14.2121C65.6065 14.0351 66.0856 14.0543 66.6158 14.2687C67.146 14.4832 67.6069 14.7734 67.9975 15.1393C68.3881 15.5053 68.6472 15.8895 68.7741 16.2937C68.9 16.698 68.7859 17.0001 68.4328 17.2027C67.4746 17.7329 66.8367 18.2622 66.5218 18.7915C66.2061 19.3217 66.061 19.8638 66.0856 20.4195C66.1112 20.9753 66.2252 21.5739 66.4269 22.2173C66.6286 22.8607 66.7801 23.5606 66.8814 24.3181C67.7137 23.9896 68.4328 23.4794 69.0387 22.7849C69.4476 22.3168 69.8564 21.8176 70.2643 21.2856C70.4186 20.9205 70.5773 20.5619 70.7407 20.2115C71.1952 19.2396 71.656 18.369 72.1223 17.5996C72.5887 16.8303 72.9738 16.2691 73.2768 15.915C73.7559 15.3857 74.3107 15.1019 74.9422 15.0636C75.5728 15.0262 76.1158 15.1466 76.5694 15.4231C77.0238 15.7006 77.3204 16.093 77.4591 16.5967C77.5978 17.1014 77.4272 17.6571 76.9481 18.2622C76.7209 18.5396 76.4316 18.9621 76.0775 19.5307C75.7243 20.0983 75.3584 20.7225 74.9806 21.4042C74.6018 22.085 74.2295 22.7849 73.8645 23.5041C73.4985 24.2232 73.1892 24.8729 72.9373 25.4533C72.6854 26.0337 72.5211 26.4946 72.4445 26.835C72.3697 27.1754 72.4198 27.3205 72.596 27.2694C73.2019 26.9673 73.7878 26.563 74.3563 26.0584C74.924 25.5537 75.4661 25.0053 75.9844 24.4121C76.5009 23.8189 77.0001 23.2011 77.4792 22.5577C77.9583 21.9143 78.4383 21.2901 78.9174 20.6842C79.2706 19.8765 79.643 19.1063 80.0335 18.3753C80.4241 17.6434 80.8731 16.9873 81.3778 16.4069C81.7309 15.8265 82.2174 15.4423 82.8352 15.2525C83.453 15.0627 84.027 15.038 84.5572 15.1767C85.0874 15.3154 85.4844 15.6184 85.7491 16.0857C86.0146 16.552 85.9699 17.1643 85.6167 17.9209C85.5665 18.0222 85.4525 18.2111 85.2763 18.4885C85.0993 18.7659 84.8857 19.0999 84.633 19.4914C84.3811 19.882 84.1091 20.3109 83.8189 20.7782C83.5287 21.2454 83.2449 21.7309 82.9675 22.2356C82.6654 22.816 82.3743 23.4019 82.0969 23.995C81.8195 24.5882 81.5731 25.1376 81.3586 25.6422C81.1442 26.146 80.9616 26.5877 80.8102 26.9664C80.6587 27.3451 80.5583 27.597 80.5072 27.7229L80.4305 27.9128C81.365 27.3324 82.1781 26.7145 82.8726 26.0584C83.5661 25.4022 84.1849 24.7589 84.727 24.1283C85.1093 23.6838 85.4598 23.2485 85.7801 22.8224C85.9854 22.4208 86.2145 22.0239 86.4682 21.6305C87.0358 20.7471 87.6974 19.9021 88.4549 19.0945C89.2123 18.2868 90.0254 17.5805 90.8969 16.9745C91.7675 16.3686 92.6637 15.9022 93.5836 15.5737C94.5044 15.2452 95.4188 15.0946 96.3277 15.1192C96.9583 15.2707 97.5132 15.5865 97.9932 16.0656L98.1064 15.9141C98.5864 15.3848 99.1412 15.101 99.7718 15.0627C100.402 15.0252 100.945 15.1457 101.4 15.4222C101.854 15.6996 102.15 16.0921 102.289 16.5958C102.427 17.1005 102.257 17.6562 101.778 18.2613C101.55 18.5387 101.26 18.9548 100.907 19.5097C100.554 20.0645 100.188 20.6833 99.8092 21.3641C99.4314 22.0458 99.0655 22.7393 98.7123 23.4457C98.3591 24.152 98.0562 24.7954 97.8043 25.3758C97.3252 26.4362 97.1609 27.0412 97.3124 27.1927C97.4639 27.3451 98.0187 27.0157 98.9779 26.209C99.8868 25.4524 100.744 24.5508 101.551 23.5031C102.051 22.8552 102.542 22.2246 103.022 21.6105C103.586 20.7344 104.244 19.8957 104.995 19.0945C105.753 18.2868 106.566 17.5805 107.438 16.9745C108.308 16.3686 109.203 15.9022 110.124 15.5737C111.046 15.2452 111.959 15.0946 112.868 15.1192C113.473 15.2707 113.965 15.5226 114.344 15.8758C114.344 15.8247 114.369 15.7754 114.42 15.7252L115.328 14.0214C115.807 13.1134 116.287 12.2546 116.766 11.447C117.245 10.6394 117.693 9.91386 118.109 9.2714C118.525 8.62803 118.891 8.09143 119.206 7.66251C119.522 7.2336 119.756 6.9434 119.907 6.79282C120.437 6.21242 120.999 5.86564 121.591 5.75156C122.184 5.6384 122.695 5.70776 123.124 5.95963C123.553 6.21242 123.83 6.61669 123.957 7.17063C124.083 7.72548 123.932 8.39441 123.503 9.17649C122.519 10.842 121.502 12.4946 120.456 14.1346C119.408 15.7754 118.405 17.5275 117.447 19.3956C116.841 20.6066 116.273 21.7738 115.743 22.8963C115.214 24.0188 114.785 24.9587 114.456 25.7162C114.204 26.2966 114.059 26.6935 114.021 26.908C113.983 27.1225 114.021 27.2238 114.135 27.211C114.248 27.1982 114.419 27.1033 114.645 26.9272C114.872 26.7501 115.124 26.5612 115.403 26.3595C116.362 25.6276 117.22 24.757 117.977 23.7477C118.733 22.7384 119.491 21.7546 120.247 20.7955C120.576 20.3657 120.898 20.0883 121.213 19.9623C121.529 19.8364 121.787 19.83 121.988 19.9432C122.19 20.0563 122.304 20.2772 122.329 20.6057C122.354 20.9333 122.253 21.3367 122.026 21.8167C121.42 22.7001 120.751 23.6528 120.02 24.6749C119.288 25.6961 118.506 26.6242 117.674 27.4565C116.841 28.2887 115.97 28.9586 115.062 29.4623C114.154 29.967 113.208 30.144 112.223 29.9925C111.492 29.8666 110.98 29.57 110.69 29.1028C110.401 28.6364 110.217 28.1126 110.142 27.5322C109.308 28.4156 108.413 29.0909 107.454 29.5572C106.495 30.0245 105.372 30.1696 104.086 29.9925C103.025 29.8155 102.275 29.4623 101.833 28.933C101.479 28.5087 101.268 27.9949 101.197 27.3926L101.153 27.4382C100.308 28.2842 99.4241 28.9595 98.5033 29.4632C97.5825 29.9679 96.6298 30.1449 95.646 29.9935C94.9643 29.8675 94.4542 29.5892 94.1129 29.1612C93.7725 28.7323 93.5644 28.2276 93.4887 27.6472C92.681 28.505 91.7977 29.1548 90.8394 29.5956C89.8803 30.0382 88.7825 30.1705 87.5468 29.9935C86.4873 29.8164 85.7363 29.4632 85.2946 28.9339C84.9542 28.5251 84.7452 28.0341 84.6667 27.4601C83.7961 28.3006 82.8954 29.0252 81.9637 29.6348C81.0173 30.2526 80.0016 30.8266 78.9165 31.3568C78.4621 32.316 77.9766 33.2368 77.4591 34.1202C76.9417 35.0035 76.3549 35.7984 75.6988 36.5047C75.0426 37.212 74.3043 37.8043 73.4839 38.2834C72.6644 38.7625 71.75 39.0782 70.7398 39.2297C69.453 39.4314 68.3497 39.3118 67.428 38.8702C66.5072 38.4285 65.8702 37.8545 65.5171 37.1481C65.1639 36.4418 65.1703 35.6779 65.5362 34.8584C65.9022 34.038 66.729 33.3381 68.0157 32.7577C69.0761 32.253 70.2306 31.8049 71.479 31.4143C72.7274 31.0238 73.9703 30.6131 75.2069 30.1842C75.4341 29.7553 75.6413 29.3081 75.8311 28.8409C76.0209 28.3745 76.2162 27.8881 76.4179 27.3835C76.4179 27.3333 76.4425 27.2822 76.4936 27.232C75.6358 28.1154 74.7332 28.8336 73.7869 29.3893C72.8415 29.9451 71.8504 30.1468 70.8164 29.9944C70.362 29.9186 69.9769 29.7607 69.662 29.5216C69.3472 29.2816 69.1072 28.9923 68.9438 28.651C68.7795 28.3106 68.6783 27.9383 68.6408 27.534C68.6034 27.1307 68.6226 26.7264 68.6974 26.323L68.7449 26.0474C68.1535 26.4362 67.4691 26.7675 66.6916 27.0422C66.4132 27.597 65.9341 28.0706 65.2533 28.4621C64.5725 28.8527 63.8151 29.1493 62.9828 29.351C62.1496 29.5527 61.3174 29.6476 60.4842 29.6348C59.6519 29.622 58.9455 29.4897 58.3651 29.2369C57.9618 29.0599 57.6844 28.7952 57.532 28.4421C57.3814 28.0889 57.3741 27.7166 57.5137 27.3251C57.6524 26.9345 57.9298 26.5612 58.346 26.208C58.7621 25.8549 59.3489 25.5902 60.1054 25.4141C60.4832 25.3128 60.862 25.2434 61.2407 25.2051C61.6194 25.1677 61.9854 25.123 62.3385 25.0728C62.2628 24.7196 62.1688 24.3163 62.0547 23.8618C61.9416 23.4073 61.8466 22.9474 61.7709 22.4801C61.6942 22.0129 61.6504 21.5593 61.6386 21.1177C61.6258 20.676 61.6952 20.2662 61.8467 19.8884C61.9224 19.6858 61.9352 19.5727 61.8841 19.5471C61.8339 19.5225 61.7453 19.6101 61.6194 19.8127C61.4424 20.0645 61.2854 20.2918 61.1467 20.4934C61.008 20.696 60.8757 20.8904 60.7488 21.0802C60.6229 21.2701 60.4906 21.4717 60.3518 21.6862C60.2131 21.9007 60.0552 22.1461 59.8791 22.4236L59.8773 22.4245ZM29.5229 9.89105C29.9016 10.0672 30.148 10.3391 30.2612 10.7169C30.3753 11.0893 30.3689 11.4616 30.243 11.8212C30.117 12.1807 29.8706 12.4828 29.5047 12.7164C29.1387 12.9555 28.666 13.0258 28.0856 12.9245C27.3282 12.9245 26.6474 12.9382 26.0414 12.9619C25.4364 12.9874 24.8496 13.0312 24.282 13.0942C23.7134 13.1572 23.1275 13.2211 22.5216 13.284C21.9165 13.347 21.2348 13.4164 20.4774 13.4921C19.2418 13.619 18.1494 13.5806 17.204 13.3789C16.2585 13.1773 15.4564 12.8934 14.8011 12.5339C14.145 12.1679 13.6403 11.7573 13.2871 11.2973C12.934 10.8374 12.7451 10.3893 12.7195 9.96679C12.6693 9.29148 12.8464 8.61069 13.2497 7.92899C13.654 7.2482 14.2152 6.59114 14.9344 5.96055C15.6535 5.33086 16.4803 4.73677 17.4138 4.18192C18.3474 3.62615 19.3065 3.12241 20.2903 2.66885C21.275 2.21439 22.2451 1.8165 23.2051 1.4761C24.1633 1.13571 25.0211 0.87745 25.7786 0.700408C26.9394 0.422983 28.2453 0.221302 29.6963 0.0944525C31.1473 -0.0314842 32.6239 -0.0314842 34.1251 0.0944525C35.6263 0.220389 37.0965 0.485951 38.5338 0.890226C39.972 1.29359 41.2588 1.87399 42.3949 2.63144C43.5302 3.38888 44.4446 4.32793 45.1391 5.45132C45.8326 6.5738 46.1922 7.9299 46.2177 9.51962C46.2679 11.8412 45.9403 13.9867 45.2331 15.9543C44.5267 17.9218 43.5931 19.809 42.4323 21.6123C41.2724 23.4165 39.9784 25.1896 38.5529 26.9308C37.1275 28.672 35.7212 30.4762 34.3332 32.3434C34.0804 32.5706 33.6578 32.6847 33.0656 32.6847C32.4724 32.6847 31.8856 32.6089 31.3052 32.4574C30.7248 32.3059 30.2265 32.0915 29.8104 31.8141C29.3942 31.5366 29.2491 31.2337 29.3751 30.906C29.7283 29.821 30.3406 28.7177 31.2103 27.5943C32.0809 26.4718 33.0336 25.3174 34.0676 24.131C35.1025 22.9456 36.1492 21.7154 37.2096 20.4405C38.27 19.1665 39.1781 17.8415 39.9355 16.4662C40.692 15.091 41.2095 13.6591 41.4869 12.1707C41.7652 10.6759 41.6512 9.09892 41.1465 7.43984C40.8691 6.53091 40.2449 5.78077 39.2721 5.18759C38.3011 4.59441 37.1403 4.1664 35.7906 3.90084C34.4408 3.63619 32.9834 3.52851 31.4193 3.57961C29.8542 3.62889 28.3402 3.83149 26.8773 4.18466C25.7165 4.46208 24.6004 4.80247 23.5282 5.20675C22.455 5.61011 21.5095 6.03355 20.6891 6.47433C19.8687 6.91602 19.2189 7.33946 18.7398 7.74282C18.2607 8.1471 18.0399 8.50027 18.0782 8.80233C18.1156 9.10531 18.4569 9.32524 19.0994 9.46396C19.7428 9.60267 20.784 9.60906 22.2222 9.48312C22.8784 9.43201 23.5528 9.38821 24.2473 9.35079C24.9418 9.31338 25.6162 9.30699 26.2723 9.33163C26.9294 9.35718 27.5399 9.41285 28.1075 9.50229C28.676 9.59081 29.1488 9.72313 29.5266 9.89378L29.5229 9.89105ZM89.476 27.5724C89.8548 27.6226 90.2773 27.4893 90.7436 27.1745C91.2109 26.8587 91.6964 26.4106 92.201 25.8302C92.7057 25.2498 93.2103 24.569 93.715 23.787C94.2197 23.004 94.686 22.1717 95.1158 21.2892C95.2418 21.0109 95.3613 20.7335 95.4754 20.456C95.5885 20.1786 95.709 19.9012 95.8349 19.6238C95.9609 19.3208 96.0749 18.9548 96.1753 18.5259C96.2766 18.097 96.2264 17.8196 96.0247 17.6936C95.5201 17.5422 94.9333 17.7183 94.2644 18.2239C93.5954 18.7285 92.9338 19.3974 92.2768 20.2297C91.6206 21.0629 91.0156 21.97 90.4607 22.9547C89.9059 23.9394 89.477 24.8218 89.174 25.6039C88.9467 26.2345 88.9029 26.7145 89.0417 27.0422C89.1804 27.3698 89.3255 27.5468 89.4779 27.5724H89.476ZM112.223 20.0399V20.0025C112.249 19.9267 112.304 19.7816 112.393 19.5672C112.481 19.3527 112.557 19.1127 112.62 18.8481C112.683 18.5834 112.721 18.3434 112.734 18.1289C112.747 17.9145 112.69 17.7694 112.564 17.6936C112.059 17.5422 111.472 17.7183 110.804 18.2239C110.135 18.7285 109.473 19.3974 108.816 20.2297C108.16 21.0629 107.555 21.97 107 22.9547C106.446 23.9394 106.017 24.8218 105.713 25.6039C105.486 26.2345 105.442 26.7145 105.58 27.0422C105.719 27.3698 105.864 27.5468 106.016 27.5724C106.394 27.6226 106.817 27.4893 107.283 27.1745C107.751 26.8587 108.23 26.4106 108.722 25.8302C109.213 25.2498 109.712 24.569 110.216 23.787C110.721 23.004 111.187 22.1717 111.617 21.2892L112.222 20.0399H112.223ZM69.0761 36.4664C69.8071 36.2647 70.4888 35.9362 71.1194 35.4826C71.75 35.0282 72.3432 34.4733 72.898 33.8172C72.2674 34.0444 71.6369 34.278 71.0063 34.518C70.3757 34.7571 69.7314 35.0163 69.0761 35.2937C68.7476 35.4206 68.4702 35.5776 68.243 35.7674C68.0157 35.9572 67.8834 36.1269 67.846 36.2784C67.8086 36.4299 67.877 36.5376 68.054 36.6006C68.2311 36.6644 68.5715 36.6197 69.0771 36.4682L69.0761 36.4664Z" fill="white"/>
<path fill-rule="evenodd" clip-rule="evenodd" d="M8.9666 22.3416C8.73663 22.8727 8.52491 23.3893 8.32961 23.8939C8.13523 24.3986 7.99287 24.7746 7.90526 25.0219C7.79849 25.3577 7.57765 25.5658 7.24181 25.6452C6.90598 25.7246 6.56559 25.72 6.22063 25.6315C5.87568 25.543 5.57909 25.3796 5.33178 25.1405C5.08355 24.9023 4.99503 24.6322 5.06621 24.332C5.33178 23.2715 5.69498 22.2713 6.15401 21.335C6.61396 20.3969 7.0739 19.4159 7.53384 18.3901C7.69263 18.0543 7.71088 17.8243 7.58677 17.7002C7.46266 17.5761 7.23269 17.629 6.89686 17.8599C6.73807 17.9658 6.55646 18.099 6.35296 18.2578C6.14945 18.4166 5.95142 18.5891 5.75704 18.7743C5.56266 18.9605 5.38106 19.1549 5.21314 19.3584C5.04523 19.561 4.90834 19.77 4.80157 19.9817C4.57251 20.4599 4.34254 20.9499 4.11256 21.4546C3.88259 21.9583 3.67087 22.4356 3.47558 22.8873C3.28029 23.3382 3.11237 23.7497 2.97092 24.1212C2.83038 24.4935 2.72361 24.7937 2.65334 25.0237C2.54657 25.3595 2.33485 25.5676 2.01636 25.647C1.69787 25.7264 1.37937 25.7182 1.06088 25.6205C0.742391 25.5229 0.473179 25.355 0.251421 25.1168C0.0296629 24.8777 -0.045169 24.6085 0.0260126 24.3082C0.131872 23.83 0.282449 23.2861 0.476829 22.6765C0.67121 22.066 0.901181 21.4163 1.16674 20.7263C1.43139 20.0373 1.73254 19.3246 2.06838 18.5909C2.40512 17.8563 2.75829 17.1454 3.12971 16.4554C3.35968 16.0484 3.68274 15.7299 4.09796 15.5C4.5141 15.2709 4.97769 15.2527 5.49148 15.447C5.84465 15.5885 6.08831 15.761 6.22063 15.9636C6.35296 16.1671 6.40132 16.3925 6.36665 16.6407C6.75541 16.3405 7.16698 16.0786 7.60046 15.8586C8.03394 15.6369 8.45829 15.4826 8.87352 15.3941C9.28965 15.3056 9.67385 15.2928 10.0279 15.3549C10.3811 15.4169 10.6823 15.5803 10.9296 15.8458C11.2134 16.1461 11.3366 16.5358 11.301 17.013C11.708 16.659 12.1497 16.3459 12.627 16.0713C13.1052 15.7975 13.5733 15.594 14.0333 15.4616C14.4932 15.3284 14.9267 15.2892 15.3337 15.3421C15.7398 15.395 16.0765 15.5629 16.3412 15.8458C16.6423 16.1817 16.7436 16.6334 16.6469 17.1992C16.5493 17.765 16.3631 18.3536 16.0902 18.9632C15.8155 19.5738 15.5199 20.1615 15.2014 20.7273C14.882 21.294 14.6529 21.7357 14.5115 22.0542C14.1756 22.8317 14.047 23.3099 14.1263 23.4869C14.2057 23.664 14.4229 23.6019 14.777 23.3007C14.9897 23.1237 15.2324 22.881 15.5071 22.5716C15.7809 22.2622 16.0592 21.931 16.3421 21.5769C16.6259 21.2228 16.8951 20.8696 17.1507 20.5155C17.3049 20.3029 17.4491 20.1021 17.5805 19.916C17.7101 19.6002 17.846 19.2908 17.9866 18.9906C18.3051 18.3098 18.6272 17.6993 18.9548 17.16C19.2824 16.6206 19.5517 16.2273 19.7643 15.98C20.1001 15.6086 20.4889 15.4096 20.9315 15.3832C21.3732 15.3567 21.7537 15.4407 22.0722 15.635C22.3907 15.8294 22.5988 16.1041 22.6955 16.4582C22.7932 16.8123 22.6736 17.201 22.3378 17.6263C22.1781 17.8207 21.9755 18.1173 21.7273 18.5152C21.4799 18.913 21.2235 19.3502 20.958 19.8284C20.6924 20.3056 20.4314 20.7966 20.1759 21.3004C19.9194 21.805 19.7022 22.2604 19.5261 22.6665C19.3491 23.0735 19.2341 23.3957 19.1812 23.6348C19.1282 23.8738 19.1629 23.9751 19.2879 23.9396C19.7123 23.7278 20.1229 23.4449 20.5208 23.0909C20.9187 22.7368 21.2993 22.3526 21.6616 21.9364C22.0239 21.5212 22.3734 21.0877 22.7092 20.636C23.0459 20.1852 23.3809 19.7471 23.7176 19.3237C23.9649 18.757 24.2259 18.2186 24.4997 17.7048C24.7744 17.1919 25.0874 16.732 25.4415 16.325C25.6897 15.9189 26.0301 15.6478 26.4636 15.5155C26.8971 15.3832 27.2986 15.3658 27.6709 15.4626C28.0414 15.5593 28.3207 15.7719 28.5059 16.0995C28.6912 16.4272 28.6611 16.8552 28.4129 17.3863C28.3782 17.4566 28.2979 17.5898 28.1738 17.7842C28.0496 17.9786 27.9 18.2131 27.7229 18.4878C27.5459 18.7616 27.3561 19.0627 27.1526 19.3894C26.9491 19.717 26.7501 20.0565 26.5557 20.4106C26.344 20.8176 26.1405 21.2283 25.9461 21.6444C25.7518 22.0596 25.5793 22.4447 25.4287 22.7988C25.279 23.1529 25.1504 23.4614 25.0445 23.7269C24.9386 23.9925 24.8675 24.1686 24.8319 24.2571L24.7789 24.3904C25.4333 23.9843 26.0045 23.5508 26.49 23.0909C26.9774 22.6309 27.4108 22.1801 27.7905 21.7375C28.1701 21.2958 28.5068 20.866 28.7989 20.4507C29.0909 20.0346 29.3601 19.6677 29.6074 19.3493C29.8191 19.0846 30.0455 18.9121 30.2837 18.8327C30.5227 18.7533 30.7217 18.7533 30.8814 18.8327C31.0402 18.9121 31.1333 19.0627 31.1597 19.2836C31.1862 19.5053 31.1022 19.7745 30.9079 20.093C30.4132 20.9244 29.8995 21.6627 29.3702 22.3079C28.839 22.953 28.3088 23.5325 27.7777 24.0454C27.159 24.6468 26.5174 25.1642 25.8549 25.5977C25.1914 26.0312 24.4796 26.4327 23.7194 26.8051C23.4009 27.4776 23.0605 28.1228 22.6973 28.7416C22.335 29.3603 21.9235 29.9179 21.4644 30.4125C21.0045 30.908 20.4871 31.3233 19.9121 31.66C19.3372 31.9958 18.6957 32.2167 17.9884 32.3226C17.0859 32.464 16.3129 32.38 15.6659 32.0707C15.0207 31.7613 14.5744 31.358 14.3262 30.8642C14.0789 30.3687 14.0825 29.8339 14.3399 29.2581C14.5963 28.6832 15.1758 28.1922 16.0775 27.7861C16.8203 27.432 17.6298 27.1181 18.5049 26.8434C19.3801 26.5696 20.2516 26.2831 21.1186 25.9819C21.2783 25.6808 21.4234 25.3668 21.5557 25.0401C21.6889 24.7125 21.8258 24.3721 21.9673 24.0189C21.9673 23.9843 21.9855 23.9487 22.0211 23.9131C21.4197 24.5318 20.7873 25.0356 20.1239 25.4252C19.4604 25.8149 18.7659 25.9555 18.0413 25.8496C17.7228 25.7967 17.4536 25.6862 17.2319 25.5183C17.011 25.3504 16.8431 25.146 16.7272 24.9078C16.6122 24.6687 16.542 24.4077 16.5155 24.1248C16.51 24.0637 16.5064 24.0025 16.5036 23.9414L16.4489 24.0062C16.113 24.4041 15.7763 24.7353 15.4405 25C15.1402 25.2482 14.7369 25.4471 14.2331 25.5977C13.7285 25.7483 13.2247 25.8094 12.7201 25.7839C12.2163 25.7574 11.7701 25.6242 11.3804 25.3851C10.9907 25.146 10.7607 24.7618 10.6905 24.2316C10.6731 23.8246 10.7443 23.3692 10.9031 22.8654C11.0619 22.3608 11.2608 21.8479 11.4999 21.3268C11.739 20.8048 11.9909 20.292 12.2556 19.7882C12.5211 19.2835 12.7511 18.82 12.9455 18.3956C13.1052 18.0598 13.1225 17.8298 12.9993 17.7057C12.8752 17.5816 12.6452 17.6345 12.3094 17.8654C12.0265 18.0598 11.708 18.3071 11.3539 18.6082C11.0007 18.9085 10.6996 19.2361 10.4523 19.5893C10.152 20.156 9.85546 20.6816 9.56343 21.1689C9.27231 21.6554 9.07337 22.0487 8.96751 22.3489L8.9666 22.3416ZM16.8194 30.3797C17.3323 30.2382 17.8095 30.0082 18.2521 29.6897C18.6947 29.3713 19.11 28.9825 19.4987 28.5226C19.057 28.6823 18.6144 28.8447 18.1718 29.0135C17.7301 29.1823 17.2784 29.363 16.8194 29.5574C16.5894 29.6459 16.395 29.7564 16.2353 29.8887C16.0765 30.021 15.9835 30.1406 15.957 30.2464C15.9305 30.3523 15.9798 30.4271 16.103 30.4718C16.2271 30.5156 16.4653 30.4855 16.8194 30.3787V30.3797Z" fill="white"/>
</svg>
